<?xml version="1.0" encoding="UTF-8" standalone="no"?>
<!-- Created with Inkscape (http://www.inkscape.org/) -->

<svg
   xmlns:dc="http://purl.org/dc/elements/1.1/"
   xmlns:cc="http://creativecommons.org/ns#"
   xmlns:rdf="http://www.w3.org/1999/02/22-rdf-syntax-ns#"
   xmlns:svg="http://www.w3.org/2000/svg"
   xmlns="http://www.w3.org/2000/svg"
   xmlns:xlink="http://www.w3.org/1999/xlink"
   xmlns:sodipodi="http://sodipodi.sourceforge.net/DTD/sodipodi-0.dtd"
   xmlns:inkscape="http://www.inkscape.org/namespaces/inkscape"
   id="svg4155"
   version="1.1"
   inkscape:version="0.91 r13725"
   xml:space="preserve"
   width="2500"
   height="1071"
   viewBox="0 0 2500 1071"
   sodipodi:docname="Figure4_a4.svg"><metadata
     id="metadata4161"><rdf:RDF><cc:Work
         rdf:about=""><dc:format>image/svg+xml</dc:format><dc:type
           rdf:resource="http://purl.org/dc/dcmitype/StillImage" /><dc:title /></cc:Work></rdf:RDF></metadata><defs
     id="defs4159"><clipPath
       clipPathUnits="userSpaceOnUse"
       id="clipPath4301"><path
         d="m 98.171103,94.906867 858.490957,0 0,659.706453 -858.490957,0 0,-659.706453 z"
         id="path4303"
         inkscape:connector-curvature="0" /></clipPath><clipPath
       clipPathUnits="userSpaceOnUse"
       id="clipPath4311"><path
         d="m -15.5,-15.5 31,0 0,31 -31,0 0,-31 z"
         id="path4313"
         inkscape:connector-curvature="0" /></clipPath><clipPath
       clipPathUnits="userSpaceOnUse"
       id="clipPath4323"><path
         d="m -15.5,-15.5 31,0 0,31 -31,0 0,-31 z"
         id="path4325"
         inkscape:connector-curvature="0" /></clipPath><clipPath
       clipPathUnits="userSpaceOnUse"
       id="clipPath4335"><path
         d="m -15.5,-15.5 31,0 0,31 -31,0 0,-31 z"
         id="path4337"
         inkscape:connector-curvature="0" /></clipPath><clipPath
       clipPathUnits="userSpaceOnUse"
       id="clipPath4347"><path
         d="m -15.5,-15.5 31,0 0,31 -31,0 0,-31 z"
         id="path4349"
         inkscape:connector-curvature="0" /></clipPath><clipPath
       clipPathUnits="userSpaceOnUse"
       id="clipPath4359"><path
         d="m -15.5,-15.5 31,0 0,31 -31,0 0,-31 z"
         id="path4361"
         inkscape:connector-curvature="0" /></clipPath><clipPath
       clipPathUnits="userSpaceOnUse"
       id="clipPath4371"><path
         d="m -15.5,-15.5 31,0 0,31 -31,0 0,-31 z"
         id="path4373"
         inkscape:connector-curvature="0" /></clipPath><clipPath
       clipPathUnits="userSpaceOnUse"
       id="clipPath4383"><path
         d="m -15.5,-15.5 31,0 0,31 -31,0 0,-31 z"
         id="path4385"
         inkscape:connector-curvature="0" /></clipPath><clipPath
       clipPathUnits="userSpaceOnUse"
       id="clipPath4395"><path
         d="m -15.5,-15.5 31,0 0,31 -31,0 0,-31 z"
         id="path4397"
         inkscape:connector-curvature="0" /></clipPath><clipPath
       clipPathUnits="userSpaceOnUse"
       id="clipPath4407"><path
         d="m -15.5,-15.5 31,0 0,31 -31,0 0,-31 z"
         id="path4409"
         inkscape:connector-curvature="0" /></clipPath><clipPath
       clipPathUnits="userSpaceOnUse"
       id="clipPath4417"><path
         d="m 98.171103,94.906867 858.490957,0 0,659.706453 -858.490957,0 0,-659.706453 z"
         id="path4419"
         inkscape:connector-curvature="0" /></clipPath><clipPath
       clipPathUnits="userSpaceOnUse"
       id="clipPath4427"><path
         d="m 98.171103,94.906867 858.490957,0 0,659.706453 -858.490957,0 0,-659.706453 z"
         id="path4429"
         inkscape:connector-curvature="0" /></clipPath><clipPath
       clipPathUnits="userSpaceOnUse"
       id="clipPath4437"><path
         d="m -15.5,-15.5 31,0 0,31 -31,0 0,-31 z"
         id="path4439"
         inkscape:connector-curvature="0" /></clipPath><clipPath
       clipPathUnits="userSpaceOnUse"
       id="clipPath4449"><path
         d="m -15.5,-15.5 31,0 0,31 -31,0 0,-31 z"
         id="path4451"
         inkscape:connector-curvature="0" /></clipPath><clipPath
       clipPathUnits="userSpaceOnUse"
       id="clipPath4461"><path
         d="m -15.5,-15.5 31,0 0,31 -31,0 0,-31 z"
         id="path4463"
         inkscape:connector-curvature="0" /></clipPath><clipPath
       clipPathUnits="userSpaceOnUse"
       id="clipPath4473"><path
         d="m -15.5,-15.5 31,0 0,31 -31,0 0,-31 z"
         id="path4475"
         inkscape:connector-curvature="0" /></clipPath><clipPath
       clipPathUnits="userSpaceOnUse"
       id="clipPath4485"><path
         d="m -15.5,-15.5 31,0 0,31 -31,0 0,-31 z"
         id="path4487"
         inkscape:connector-curvature="0" /></clipPath><clipPath
       clipPathUnits="userSpaceOnUse"
       id="clipPath4497"><path
         d="m -15.5,-15.5 31,0 0,31 -31,0 0,-31 z"
         id="path4499"
         inkscape:connector-curvature="0" /></clipPath><clipPath
       clipPathUnits="userSpaceOnUse"
       id="clipPath4509"><path
         d="m -15.5,-15.5 31,0 0,31 -31,0 0,-31 z"
         id="path4511"
         inkscape:connector-curvature="0" /></clipPath><clipPath
       clipPathUnits="userSpaceOnUse"
       id="clipPath4521"><path
         d="m -15.5,-15.5 31,0 0,31 -31,0 0,-31 z"
         id="path4523"
         inkscape:connector-curvature="0" /></clipPath><clipPath
       clipPathUnits="userSpaceOnUse"
       id="clipPath4531"><path
         d="m 98.171103,94.906867 858.490957,0 0,659.706453 -858.490957,0 0,-659.706453 z"
         id="path4533"
         inkscape:connector-curvature="0" /></clipPath><clipPath
       clipPathUnits="userSpaceOnUse"
       id="clipPath4541"><path
         d="m 98.171103,94.906867 858.490957,0 0,659.706453 -858.490957,0 0,-659.706453 z"
         id="path4543"
         inkscape:connector-curvature="0" /></clipPath><clipPath
       clipPathUnits="userSpaceOnUse"
       id="clipPath4551"><path
         d="m -15.5,-15.5 31,0 0,31 -31,0 0,-31 z"
         id="path4553"
         inkscape:connector-curvature="0" /></clipPath><clipPath
       clipPathUnits="userSpaceOnUse"
       id="clipPath4563"><path
         d="m -15.5,-15.5 31,0 0,31 -31,0 0,-31 z"
         id="path4565"
         inkscape:connector-curvature="0" /></clipPath><clipPath
       clipPathUnits="userSpaceOnUse"
       id="clipPath4575"><path
         d="m -15.5,-15.5 31,0 0,31 -31,0 0,-31 z"
         id="path4577"
         inkscape:connector-curvature="0" /></clipPath><clipPath
       clipPathUnits="userSpaceOnUse"
       id="clipPath4587"><path
         d="m -15.5,-15.5 31,0 0,31 -31,0 0,-31 z"
         id="path4589"
         inkscape:connector-curvature="0" /></clipPath><clipPath
       clipPathUnits="userSpaceOnUse"
       id="clipPath4599"><path
         d="m -15.5,-15.5 31,0 0,31 -31,0 0,-31 z"
         id="path4601"
         inkscape:connector-curvature="0" /></clipPath><clipPath
       clipPathUnits="userSpaceOnUse"
       id="clipPath4611"><path
         d="m -15.5,-15.5 31,0 0,31 -31,0 0,-31 z"
         id="path4613"
         inkscape:connector-curvature="0" /></clipPath><clipPath
       clipPathUnits="userSpaceOnUse"
       id="clipPath4623"><path
         d="m -15.5,-15.5 31,0 0,31 -31,0 0,-31 z"
         id="path4625"
         inkscape:connector-curvature="0" /></clipPath><clipPath
       clipPathUnits="userSpaceOnUse"
       id="clipPath4635"><path
         d="m -15.5,-15.5 31,0 0,31 -31,0 0,-31 z"
         id="path4637"
         inkscape:connector-curvature="0" /></clipPath><clipPath
       clipPathUnits="userSpaceOnUse"
       id="clipPath4645"><path
         d="m 98.171103,94.906867 858.490957,0 0,659.706453 -858.490957,0 0,-659.706453 z"
         id="path4647"
         inkscape:connector-curvature="0" /></clipPath><clipPath
       clipPathUnits="userSpaceOnUse"
       id="clipPath4655"><path
         d="m 98.171103,94.906867 858.490957,0 0,659.706453 -858.490957,0 0,-659.706453 z"
         id="path4657"
         inkscape:connector-curvature="0" /></clipPath><clipPath
       clipPathUnits="userSpaceOnUse"
       id="clipPath4665"><path
         d="m -13.490381,-15.5 26.980762,0 0,31 -26.980762,0 0,-31 z"
         id="path4667"
         inkscape:connector-curvature="0" /></clipPath><clipPath
       clipPathUnits="userSpaceOnUse"
       id="clipPath4677"><path
         d="m -13.490381,-15.5 26.980762,0 0,31 -26.980762,0 0,-31 z"
         id="path4679"
         inkscape:connector-curvature="0" /></clipPath><clipPath
       clipPathUnits="userSpaceOnUse"
       id="clipPath4689"><path
         d="m -13.490381,-15.5 26.980762,0 0,31 -26.980762,0 0,-31 z"
         id="path4691"
         inkscape:connector-curvature="0" /></clipPath><clipPath
       clipPathUnits="userSpaceOnUse"
       id="clipPath4701"><path
         d="m -13.490381,-15.5 26.980762,0 0,31 -26.980762,0 0,-31 z"
         id="path4703"
         inkscape:connector-curvature="0" /></clipPath><clipPath
       clipPathUnits="userSpaceOnUse"
       id="clipPath4713"><path
         d="m -13.490381,-15.5 26.980762,0 0,31 -26.980762,0 0,-31 z"
         id="path4715"
         inkscape:connector-curvature="0" /></clipPath><clipPath
       clipPathUnits="userSpaceOnUse"
       id="clipPath4725"><path
         d="m -13.490381,-15.5 26.980762,0 0,31 -26.980762,0 0,-31 z"
         id="path4727"
         inkscape:connector-curvature="0" /></clipPath><clipPath
       clipPathUnits="userSpaceOnUse"
       id="clipPath4737"><path
         d="m -13.490381,-15.5 26.980762,0 0,31 -26.980762,0 0,-31 z"
         id="path4739"
         inkscape:connector-curvature="0" /></clipPath><clipPath
       clipPathUnits="userSpaceOnUse"
       id="clipPath4749"><path
         d="m -13.490381,-15.5 26.980762,0 0,31 -26.980762,0 0,-31 z"
         id="path4751"
         inkscape:connector-curvature="0" /></clipPath><clipPath
       clipPathUnits="userSpaceOnUse"
       id="clipPath4759"><path
         d="m 98.171103,94.906867 858.490957,0 0,659.706453 -858.490957,0 0,-659.706453 z"
         id="path4761"
         inkscape:connector-curvature="0" /></clipPath><clipPath
       clipPathUnits="userSpaceOnUse"
       id="clipPath4769"><path
         d="m 98.171103,94.906867 858.490957,0 0,659.706453 -858.490957,0 0,-659.706453 z"
         id="path4771"
         inkscape:connector-curvature="0" /></clipPath><clipPath
       clipPathUnits="userSpaceOnUse"
       id="clipPath4779"><path
         d="m -15.5,-15.5 31,0 0,31 -31,0 0,-31 z"
         id="path4781"
         inkscape:connector-curvature="0" /></clipPath><clipPath
       clipPathUnits="userSpaceOnUse"
       id="clipPath4791"><path
         d="m -15.5,-15.5 31,0 0,31 -31,0 0,-31 z"
         id="path4793"
         inkscape:connector-curvature="0" /></clipPath><clipPath
       clipPathUnits="userSpaceOnUse"
       id="clipPath4803"><path
         d="m -15.5,-15.5 31,0 0,31 -31,0 0,-31 z"
         id="path4805"
         inkscape:connector-curvature="0" /></clipPath><clipPath
       clipPathUnits="userSpaceOnUse"
       id="clipPath4815"><path
         d="m -15.5,-15.5 31,0 0,31 -31,0 0,-31 z"
         id="path4817"
         inkscape:connector-curvature="0" /></clipPath><clipPath
       clipPathUnits="userSpaceOnUse"
       id="clipPath4827"><path
         d="m -15.5,-15.5 31,0 0,31 -31,0 0,-31 z"
         id="path4829"
         inkscape:connector-curvature="0" /></clipPath><clipPath
       clipPathUnits="userSpaceOnUse"
       id="clipPath4837"><path
         d="m 98.171103,94.906867 858.490957,0 0,659.706453 -858.490957,0 0,-659.706453 z"
         id="path4839"
         inkscape:connector-curvature="0" /></clipPath><clipPath
       clipPathUnits="userSpaceOnUse"
       id="clipPath4847"><path
         d="m 98.171103,94.906867 858.490957,0 0,659.706453 -858.490957,0 0,-659.706453 z"
         id="path4849"
         inkscape:connector-curvature="0" /></clipPath><clipPath
       clipPathUnits="userSpaceOnUse"
       id="clipPath4857"><path
         d="m -21.713203,-21.713203 43.426406,0 0,43.426406 -43.426406,0 0,-43.426406 z"
         id="path4859"
         inkscape:connector-curvature="0" /></clipPath><clipPath
       clipPathUnits="userSpaceOnUse"
       id="clipPath4869"><path
         d="m -21.713203,-21.713203 43.426406,0 0,43.426406 -43.426406,0 0,-43.426406 z"
         id="path4871"
         inkscape:connector-curvature="0" /></clipPath><clipPath
       clipPathUnits="userSpaceOnUse"
       id="clipPath4881"><path
         d="m -21.713203,-21.713203 43.426406,0 0,43.426406 -43.426406,0 0,-43.426406 z"
         id="path4883"
         inkscape:connector-curvature="0" /></clipPath><clipPath
       clipPathUnits="userSpaceOnUse"
       id="clipPath4893"><path
         d="m -21.713203,-21.713203 43.426406,0 0,43.426406 -43.426406,0 0,-43.426406 z"
         id="path4895"
         inkscape:connector-curvature="0" /></clipPath><clipPath
       clipPathUnits="userSpaceOnUse"
       id="clipPath4905"><path
         d="m -21.713203,-21.713203 43.426406,0 0,43.426406 -43.426406,0 0,-43.426406 z"
         id="path4907"
         inkscape:connector-curvature="0" /></clipPath><clipPath
       clipPathUnits="userSpaceOnUse"
       id="clipPath4917"><path
         d="m -21.713203,-21.713203 43.426406,0 0,43.426406 -43.426406,0 0,-43.426406 z"
         id="path4919"
         inkscape:connector-curvature="0" /></clipPath><clipPath
       clipPathUnits="userSpaceOnUse"
       id="clipPath4929"><path
         d="m -21.713203,-21.713203 43.426406,0 0,43.426406 -43.426406,0 0,-43.426406 z"
         id="path4931"
         inkscape:connector-curvature="0" /></clipPath><clipPath
       clipPathUnits="userSpaceOnUse"
       id="clipPath4941"><path
         d="m -21.713203,-21.713203 43.426406,0 0,43.426406 -43.426406,0 0,-43.426406 z"
         id="path4943"
         inkscape:connector-curvature="0" /></clipPath><clipPath
       clipPathUnits="userSpaceOnUse"
       id="clipPath4953"><path
         d="m -21.713203,-21.713203 43.426406,0 0,43.426406 -43.426406,0 0,-43.426406 z"
         id="path4955"
         inkscape:connector-curvature="0" /></clipPath><clipPath
       clipPathUnits="userSpaceOnUse"
       id="clipPath4963"><path
         d="m 98.171103,94.906867 858.490957,0 0,659.706453 -858.490957,0 0,-659.706453 z"
         id="path4965"
         inkscape:connector-curvature="0" /></clipPath><clipPath
       id="clipPath7096"
       clipPathUnits="userSpaceOnUse"><path
         inkscape:connector-curvature="0"
         id="path7098"
         d="m 91.614148,94.906867 865.047912,0 0,659.706453 -865.047912,0 0,-659.706453 z" /></clipPath><clipPath
       id="clipPath7106"
       clipPathUnits="userSpaceOnUse"><path
         inkscape:connector-curvature="0"
         id="path7108"
         d="m -15.5,-15.5 31,0 0,31 -31,0 0,-31 z" /></clipPath><clipPath
       id="clipPath7118"
       clipPathUnits="userSpaceOnUse"><path
         inkscape:connector-curvature="0"
         id="path7120"
         d="m -15.5,-15.5 31,0 0,31 -31,0 0,-31 z" /></clipPath><clipPath
       id="clipPath7130"
       clipPathUnits="userSpaceOnUse"><path
         inkscape:connector-curvature="0"
         id="path7132"
         d="m -15.5,-15.5 31,0 0,31 -31,0 0,-31 z" /></clipPath><clipPath
       id="clipPath7142"
       clipPathUnits="userSpaceOnUse"><path
         inkscape:connector-curvature="0"
         id="path7144"
         d="m -15.5,-15.5 31,0 0,31 -31,0 0,-31 z" /></clipPath><clipPath
       id="clipPath7154"
       clipPathUnits="userSpaceOnUse"><path
         inkscape:connector-curvature="0"
         id="path7156"
         d="m -15.5,-15.5 31,0 0,31 -31,0 0,-31 z" /></clipPath><clipPath
       id="clipPath7166"
       clipPathUnits="userSpaceOnUse"><path
         inkscape:connector-curvature="0"
         id="path7168"
         d="m -15.5,-15.5 31,0 0,31 -31,0 0,-31 z" /></clipPath><clipPath
       id="clipPath7178"
       clipPathUnits="userSpaceOnUse"><path
         inkscape:connector-curvature="0"
         id="path7180"
         d="m -15.5,-15.5 31,0 0,31 -31,0 0,-31 z" /></clipPath><clipPath
       id="clipPath7190"
       clipPathUnits="userSpaceOnUse"><path
         inkscape:connector-curvature="0"
         id="path7192"
         d="m -15.5,-15.5 31,0 0,31 -31,0 0,-31 z" /></clipPath><clipPath
       id="clipPath7200"
       clipPathUnits="userSpaceOnUse"><path
         inkscape:connector-curvature="0"
         id="path7202"
         d="m 91.614148,94.906867 865.047912,0 0,659.706453 -865.047912,0 0,-659.706453 z" /></clipPath><clipPath
       id="clipPath7210"
       clipPathUnits="userSpaceOnUse"><path
         inkscape:connector-curvature="0"
         id="path7212"
         d="m 91.614148,94.906867 865.047912,0 0,659.706453 -865.047912,0 0,-659.706453 z" /></clipPath><clipPath
       id="clipPath7220"
       clipPathUnits="userSpaceOnUse"><path
         inkscape:connector-curvature="0"
         id="path7222"
         d="m -15.5,-15.5 31,0 0,31 -31,0 0,-31 z" /></clipPath><clipPath
       id="clipPath7232"
       clipPathUnits="userSpaceOnUse"><path
         inkscape:connector-curvature="0"
         id="path7234"
         d="m -15.5,-15.5 31,0 0,31 -31,0 0,-31 z" /></clipPath><clipPath
       id="clipPath7244"
       clipPathUnits="userSpaceOnUse"><path
         inkscape:connector-curvature="0"
         id="path7246"
         d="m -15.5,-15.5 31,0 0,31 -31,0 0,-31 z" /></clipPath><clipPath
       id="clipPath7256"
       clipPathUnits="userSpaceOnUse"><path
         inkscape:connector-curvature="0"
         id="path7258"
         d="m -15.5,-15.5 31,0 0,31 -31,0 0,-31 z" /></clipPath><clipPath
       id="clipPath7268"
       clipPathUnits="userSpaceOnUse"><path
         inkscape:connector-curvature="0"
         id="path7270"
         d="m -15.5,-15.5 31,0 0,31 -31,0 0,-31 z" /></clipPath><clipPath
       id="clipPath7280"
       clipPathUnits="userSpaceOnUse"><path
         inkscape:connector-curvature="0"
         id="path7282"
         d="m -15.5,-15.5 31,0 0,31 -31,0 0,-31 z" /></clipPath><clipPath
       id="clipPath7290"
       clipPathUnits="userSpaceOnUse"><path
         inkscape:connector-curvature="0"
         id="path7292"
         d="m 91.614148,94.906867 865.047912,0 0,659.706453 -865.047912,0 0,-659.706453 z" /></clipPath><clipPath
       id="clipPath7300"
       clipPathUnits="userSpaceOnUse"><path
         inkscape:connector-curvature="0"
         id="path7302"
         d="m 91.614148,94.906867 865.047912,0 0,659.706453 -865.047912,0 0,-659.706453 z" /></clipPath><clipPath
       id="clipPath7310"
       clipPathUnits="userSpaceOnUse"><path
         inkscape:connector-curvature="0"
         id="path7312"
         d="m -15.5,-15.5 31,0 0,31 -31,0 0,-31 z" /></clipPath><clipPath
       id="clipPath7322"
       clipPathUnits="userSpaceOnUse"><path
         inkscape:connector-curvature="0"
         id="path7324"
         d="m -15.5,-15.5 31,0 0,31 -31,0 0,-31 z" /></clipPath><clipPath
       id="clipPath7334"
       clipPathUnits="userSpaceOnUse"><path
         inkscape:connector-curvature="0"
         id="path7336"
         d="m -15.5,-15.5 31,0 0,31 -31,0 0,-31 z" /></clipPath><clipPath
       id="clipPath7346"
       clipPathUnits="userSpaceOnUse"><path
         inkscape:connector-curvature="0"
         id="path7348"
         d="m -15.5,-15.5 31,0 0,31 -31,0 0,-31 z" /></clipPath><clipPath
       id="clipPath7358"
       clipPathUnits="userSpaceOnUse"><path
         inkscape:connector-curvature="0"
         id="path7360"
         d="m -15.5,-15.5 31,0 0,31 -31,0 0,-31 z" /></clipPath><clipPath
       id="clipPath7370"
       clipPathUnits="userSpaceOnUse"><path
         inkscape:connector-curvature="0"
         id="path7372"
         d="m -15.5,-15.5 31,0 0,31 -31,0 0,-31 z" /></clipPath><clipPath
       id="clipPath7380"
       clipPathUnits="userSpaceOnUse"><path
         inkscape:connector-curvature="0"
         id="path7382"
         d="m 91.614148,94.906867 865.047912,0 0,659.706453 -865.047912,0 0,-659.706453 z" /></clipPath><clipPath
       id="clipPath7390"
       clipPathUnits="userSpaceOnUse"><path
         inkscape:connector-curvature="0"
         id="path7392"
         d="m 91.614148,94.906867 865.047912,0 0,659.706453 -865.047912,0 0,-659.706453 z" /></clipPath><clipPath
       id="clipPath7400"
       clipPathUnits="userSpaceOnUse"><path
         inkscape:connector-curvature="0"
         id="path7402"
         d="m -13.490381,-15.5 26.980762,0 0,31 -26.980762,0 0,-31 z" /></clipPath><clipPath
       id="clipPath7412"
       clipPathUnits="userSpaceOnUse"><path
         inkscape:connector-curvature="0"
         id="path7414"
         d="m -13.490381,-15.5 26.980762,0 0,31 -26.980762,0 0,-31 z" /></clipPath><clipPath
       id="clipPath7424"
       clipPathUnits="userSpaceOnUse"><path
         inkscape:connector-curvature="0"
         id="path7426"
         d="m -13.490381,-15.5 26.980762,0 0,31 -26.980762,0 0,-31 z" /></clipPath><clipPath
       id="clipPath7436"
       clipPathUnits="userSpaceOnUse"><path
         inkscape:connector-curvature="0"
         id="path7438"
         d="m -13.490381,-15.5 26.980762,0 0,31 -26.980762,0 0,-31 z" /></clipPath><clipPath
       id="clipPath7448"
       clipPathUnits="userSpaceOnUse"><path
         inkscape:connector-curvature="0"
         id="path7450"
         d="m -13.490381,-15.5 26.980762,0 0,31 -26.980762,0 0,-31 z" /></clipPath><clipPath
       id="clipPath7458"
       clipPathUnits="userSpaceOnUse"><path
         inkscape:connector-curvature="0"
         id="path7460"
         d="m 91.614148,94.906867 865.047912,0 0,659.706453 -865.047912,0 0,-659.706453 z" /></clipPath><clipPath
       id="clipPath7468"
       clipPathUnits="userSpaceOnUse"><path
         inkscape:connector-curvature="0"
         id="path7470"
         d="m 91.614148,94.906867 865.047912,0 0,659.706453 -865.047912,0 0,-659.706453 z" /></clipPath><clipPath
       id="clipPath7478"
       clipPathUnits="userSpaceOnUse"><path
         inkscape:connector-curvature="0"
         id="path7480"
         d="m -15.5,-15.5 31,0 0,31 -31,0 0,-31 z" /></clipPath><clipPath
       id="clipPath7490"
       clipPathUnits="userSpaceOnUse"><path
         inkscape:connector-curvature="0"
         id="path7492"
         d="m -15.5,-15.5 31,0 0,31 -31,0 0,-31 z" /></clipPath><clipPath
       id="clipPath7502"
       clipPathUnits="userSpaceOnUse"><path
         inkscape:connector-curvature="0"
         id="path7504"
         d="m -15.5,-15.5 31,0 0,31 -31,0 0,-31 z" /></clipPath><clipPath
       id="clipPath7514"
       clipPathUnits="userSpaceOnUse"><path
         inkscape:connector-curvature="0"
         id="path7516"
         d="m -15.5,-15.5 31,0 0,31 -31,0 0,-31 z" /></clipPath><clipPath
       id="clipPath7526"
       clipPathUnits="userSpaceOnUse"><path
         inkscape:connector-curvature="0"
         id="path7528"
         d="m -15.5,-15.5 31,0 0,31 -31,0 0,-31 z" /></clipPath><clipPath
       id="clipPath7536"
       clipPathUnits="userSpaceOnUse"><path
         inkscape:connector-curvature="0"
         id="path7538"
         d="m 91.614148,94.906867 865.047912,0 0,659.706453 -865.047912,0 0,-659.706453 z" /></clipPath><clipPath
       id="clipPath7546"
       clipPathUnits="userSpaceOnUse"><path
         inkscape:connector-curvature="0"
         id="path7548"
         d="m 91.614148,94.906867 865.047912,0 0,659.706453 -865.047912,0 0,-659.706453 z" /></clipPath><clipPath
       id="clipPath7556"
       clipPathUnits="userSpaceOnUse"><path
         inkscape:connector-curvature="0"
         id="path7558"
         d="m -15.5,-15.5 31,0 0,31 -31,0 0,-31 z" /></clipPath><clipPath
       id="clipPath7568"
       clipPathUnits="userSpaceOnUse"><path
         inkscape:connector-curvature="0"
         id="path7570"
         d="m -15.5,-15.5 31,0 0,31 -31,0 0,-31 z" /></clipPath><clipPath
       id="clipPath7580"
       clipPathUnits="userSpaceOnUse"><path
         inkscape:connector-curvature="0"
         id="path7582"
         d="m -15.5,-15.5 31,0 0,31 -31,0 0,-31 z" /></clipPath><clipPath
       id="clipPath7592"
       clipPathUnits="userSpaceOnUse"><path
         inkscape:connector-curvature="0"
         id="path7594"
         d="m -15.5,-15.5 31,0 0,31 -31,0 0,-31 z" /></clipPath><clipPath
       id="clipPath7604"
       clipPathUnits="userSpaceOnUse"><path
         inkscape:connector-curvature="0"
         id="path7606"
         d="m -15.5,-15.5 31,0 0,31 -31,0 0,-31 z" /></clipPath><clipPath
       id="clipPath7616"
       clipPathUnits="userSpaceOnUse"><path
         inkscape:connector-curvature="0"
         id="path7618"
         d="m -15.5,-15.5 31,0 0,31 -31,0 0,-31 z" /></clipPath><clipPath
       id="clipPath7628"
       clipPathUnits="userSpaceOnUse"><path
         inkscape:connector-curvature="0"
         id="path7630"
         d="m -15.5,-15.5 31,0 0,31 -31,0 0,-31 z" /></clipPath><clipPath
       id="clipPath7640"
       clipPathUnits="userSpaceOnUse"><path
         inkscape:connector-curvature="0"
         id="path7642"
         d="m -15.5,-15.5 31,0 0,31 -31,0 0,-31 z" /></clipPath><clipPath
       id="clipPath7650"
       clipPathUnits="userSpaceOnUse"><path
         inkscape:connector-curvature="0"
         id="path7652"
         d="m 91.614148,94.906867 865.047912,0 0,659.706453 -865.047912,0 0,-659.706453 z" /></clipPath><clipPath
       id="clipPath7660"
       clipPathUnits="userSpaceOnUse"><path
         inkscape:connector-curvature="0"
         id="path7662"
         d="m 91.614148,94.906867 865.047912,0 0,659.706453 -865.047912,0 0,-659.706453 z" /></clipPath><clipPath
       id="clipPath7670"
       clipPathUnits="userSpaceOnUse"><path
         inkscape:connector-curvature="0"
         id="path7672"
         d="m -21.713203,-21.713203 43.426406,0 0,43.426406 -43.426406,0 0,-43.426406 z" /></clipPath><clipPath
       id="clipPath7682"
       clipPathUnits="userSpaceOnUse"><path
         inkscape:connector-curvature="0"
         id="path7684"
         d="m -21.713203,-21.713203 43.426406,0 0,43.426406 -43.426406,0 0,-43.426406 z" /></clipPath><clipPath
       id="clipPath7694"
       clipPathUnits="userSpaceOnUse"><path
         inkscape:connector-curvature="0"
         id="path7696"
         d="m -21.713203,-21.713203 43.426406,0 0,43.426406 -43.426406,0 0,-43.426406 z" /></clipPath><clipPath
       id="clipPath7706"
       clipPathUnits="userSpaceOnUse"><path
         inkscape:connector-curvature="0"
         id="path7708"
         d="m -21.713203,-21.713203 43.426406,0 0,43.426406 -43.426406,0 0,-43.426406 z" /></clipPath><clipPath
       id="clipPath7718"
       clipPathUnits="userSpaceOnUse"><path
         inkscape:connector-curvature="0"
         id="path7720"
         d="m -21.713203,-21.713203 43.426406,0 0,43.426406 -43.426406,0 0,-43.426406 z" /></clipPath><clipPath
       id="clipPath7730"
       clipPathUnits="userSpaceOnUse"><path
         inkscape:connector-curvature="0"
         id="path7732"
         d="m -21.713203,-21.713203 43.426406,0 0,43.426406 -43.426406,0 0,-43.426406 z" /></clipPath><clipPath
       id="clipPath7740"
       clipPathUnits="userSpaceOnUse"><path
         inkscape:connector-curvature="0"
         id="path7742"
         d="m 91.614148,94.906867 865.047912,0 0,659.706453 -865.047912,0 0,-659.706453 z" /></clipPath></defs><sodipodi:namedview
     pagecolor="#ffffff"
     bordercolor="#666666"
     borderopacity="1"
     objecttolerance="10"
     gridtolerance="10"
     guidetolerance="10"
     inkscape:pageopacity="0"
     inkscape:pageshadow="2"
     inkscape:window-width="1366"
     inkscape:window-height="718"
     id="namedview4157"
     showgrid="false"
     inkscape:zoom="0.45421606"
     inkscape:cx="915.6552"
     inkscape:cy="237.90309"
     inkscape:window-x="0"
     inkscape:window-y="0"
     inkscape:window-maximized="1"
     inkscape:current-layer="g4969" /><g
     id="g4163"
     inkscape:groupmode="layer"
     inkscape:label="Figure4_a"
     transform="matrix(1.25,0,0,-1.25,0,1071)"><g
       id="g4712"><text
         y="-59.773617"
         x="61.233166"
         id="text4169"
         style="font-variant:normal;font-weight:normal;font-size:44.83187866px;font-family:CMR17;-inkscape-font-specification:CMR17;writing-mode:lr-tb;fill:#000000;fill-opacity:1;fill-rule:nonzero;stroke:none"
         transform="scale(1,-1)"><tspan
           id="tspan4171"
           y="-59.773617"
           x="61.233166">0</tspan></text>
<text
         y="-59.773617"
         x="81.793877"
         id="text4173"
         style="font-style:italic;font-variant:normal;font-weight:normal;font-size:44.83187866px;font-family:CMMI12;-inkscape-font-specification:CMMI12;writing-mode:lr-tb;fill:#000000;fill-opacity:1;fill-rule:nonzero;stroke:none"
         transform="scale(1,-1)"><tspan
           id="tspan4175"
           y="-59.773617"
           x="81.793877">.</tspan></text>
<text
         y="-59.773617"
         x="93.98761"
         id="text4177"
         style="font-variant:normal;font-weight:normal;font-size:44.83187866px;font-family:CMR17;-inkscape-font-specification:CMR17;writing-mode:lr-tb;fill:#000000;fill-opacity:1;fill-rule:nonzero;stroke:none"
         transform="scale(1,-1)"><tspan
           id="tspan4179"
           sodipodi:role="line"
           y="-59.773617"
           x="93.98761 114.52061">05</tspan></text>
<text
         y="-59.773617"
         x="232.93137"
         id="text4181"
         style="font-variant:normal;font-weight:normal;font-size:44.83187866px;font-family:CMR17;-inkscape-font-specification:CMR17;writing-mode:lr-tb;fill:#000000;fill-opacity:1;fill-rule:nonzero;stroke:none"
         transform="scale(1,-1)"><tspan
           id="tspan4183"
           y="-59.773617"
           x="232.93137">0</tspan></text>
<text
         y="-59.773617"
         x="253.49207"
         id="text4185"
         style="font-style:italic;font-variant:normal;font-weight:normal;font-size:44.83187866px;font-family:CMMI12;-inkscape-font-specification:CMMI12;writing-mode:lr-tb;fill:#000000;fill-opacity:1;fill-rule:nonzero;stroke:none"
         transform="scale(1,-1)"><tspan
           id="tspan4187"
           y="-59.773617"
           x="253.49207">.</tspan></text>
<text
         y="-59.773617"
         x="265.68579"
         id="text4189"
         style="font-variant:normal;font-weight:normal;font-size:44.83187866px;font-family:CMR17;-inkscape-font-specification:CMR17;writing-mode:lr-tb;fill:#000000;fill-opacity:1;fill-rule:nonzero;stroke:none"
         transform="scale(1,-1)"><tspan
           id="tspan4191"
           sodipodi:role="line"
           y="-59.773617"
           x="265.68579 286.21881">10</tspan></text>
<text
         y="-59.773617"
         x="404.62955"
         id="text4193"
         style="font-variant:normal;font-weight:normal;font-size:44.83187866px;font-family:CMR17;-inkscape-font-specification:CMR17;writing-mode:lr-tb;fill:#000000;fill-opacity:1;fill-rule:nonzero;stroke:none"
         transform="scale(1,-1)"><tspan
           id="tspan4195"
           y="-59.773617"
           x="404.62955">0</tspan></text>
<text
         y="-59.773617"
         x="425.19025"
         id="text4197"
         style="font-style:italic;font-variant:normal;font-weight:normal;font-size:44.83187866px;font-family:CMMI12;-inkscape-font-specification:CMMI12;writing-mode:lr-tb;fill:#000000;fill-opacity:1;fill-rule:nonzero;stroke:none"
         transform="scale(1,-1)"><tspan
           id="tspan4199"
           y="-59.773617"
           x="425.19025">.</tspan></text>
<text
         y="-59.773617"
         x="437.384"
         id="text4201"
         style="font-variant:normal;font-weight:normal;font-size:44.83187866px;font-family:CMR17;-inkscape-font-specification:CMR17;writing-mode:lr-tb;fill:#000000;fill-opacity:1;fill-rule:nonzero;stroke:none"
         transform="scale(1,-1)"><tspan
           id="tspan4203"
           sodipodi:role="line"
           y="-59.773617"
           x="437.384 457.91699">15</tspan></text>
<text
         y="-59.773617"
         x="576.32776"
         id="text4205"
         style="font-variant:normal;font-weight:normal;font-size:44.83187866px;font-family:CMR17;-inkscape-font-specification:CMR17;writing-mode:lr-tb;fill:#000000;fill-opacity:1;fill-rule:nonzero;stroke:none"
         transform="scale(1,-1)"><tspan
           id="tspan4207"
           y="-59.773617"
           x="576.32776">0</tspan></text>
<text
         y="-59.773617"
         x="596.88849"
         id="text4209"
         style="font-style:italic;font-variant:normal;font-weight:normal;font-size:44.83187866px;font-family:CMMI12;-inkscape-font-specification:CMMI12;writing-mode:lr-tb;fill:#000000;fill-opacity:1;fill-rule:nonzero;stroke:none"
         transform="scale(1,-1)"><tspan
           id="tspan4211"
           y="-59.773617"
           x="596.88849">.</tspan></text>
<text
         y="-59.773617"
         x="609.08221"
         id="text4213"
         style="font-variant:normal;font-weight:normal;font-size:44.83187866px;font-family:CMR17;-inkscape-font-specification:CMR17;writing-mode:lr-tb;fill:#000000;fill-opacity:1;fill-rule:nonzero;stroke:none"
         transform="scale(1,-1)"><tspan
           id="tspan4215"
           sodipodi:role="line"
           y="-59.773617"
           x="609.08221 629.61517">20</tspan></text>
<text
         y="-59.773617"
         x="748.02594"
         id="text4217"
         style="font-variant:normal;font-weight:normal;font-size:44.83187866px;font-family:CMR17;-inkscape-font-specification:CMR17;writing-mode:lr-tb;fill:#000000;fill-opacity:1;fill-rule:nonzero;stroke:none"
         transform="scale(1,-1)"><tspan
           id="tspan4219"
           y="-59.773617"
           x="748.02594">0</tspan></text>
<text
         y="-59.773617"
         x="768.58667"
         id="text4221"
         style="font-style:italic;font-variant:normal;font-weight:normal;font-size:44.83187866px;font-family:CMMI12;-inkscape-font-specification:CMMI12;writing-mode:lr-tb;fill:#000000;fill-opacity:1;fill-rule:nonzero;stroke:none"
         transform="scale(1,-1)"><tspan
           id="tspan4223"
           y="-59.773617"
           x="768.58667">.</tspan></text>
<text
         y="-59.773617"
         x="780.7804"
         id="text4225"
         style="font-variant:normal;font-weight:normal;font-size:44.83187866px;font-family:CMR17;-inkscape-font-specification:CMR17;writing-mode:lr-tb;fill:#000000;fill-opacity:1;fill-rule:nonzero;stroke:none"
         transform="scale(1,-1)"><tspan
           id="tspan4227"
           sodipodi:role="line"
           y="-59.773617"
           x="780.7804 801.31335">25</tspan></text>
<text
         y="-59.773617"
         x="919.72412"
         id="text4229"
         style="font-variant:normal;font-weight:normal;font-size:44.83187866px;font-family:CMR17;-inkscape-font-specification:CMR17;writing-mode:lr-tb;fill:#000000;fill-opacity:1;fill-rule:nonzero;stroke:none"
         transform="scale(1,-1)"><tspan
           id="tspan4231"
           y="-59.773617"
           x="919.72412">0</tspan></text>
<text
         y="-59.773617"
         x="940.28485"
         id="text4233"
         style="font-style:italic;font-variant:normal;font-weight:normal;font-size:44.83187866px;font-family:CMMI12;-inkscape-font-specification:CMMI12;writing-mode:lr-tb;fill:#000000;fill-opacity:1;fill-rule:nonzero;stroke:none"
         transform="scale(1,-1)"><tspan
           id="tspan4235"
           y="-59.773617"
           x="940.28485">.</tspan></text>
<text
         y="-59.773617"
         x="952.47858"
         id="text4237"
         style="font-variant:normal;font-weight:normal;font-size:44.83187866px;font-family:CMR17;-inkscape-font-specification:CMR17;writing-mode:lr-tb;fill:#000000;fill-opacity:1;fill-rule:nonzero;stroke:none"
         transform="scale(1,-1)"><tspan
           id="tspan4239"
           sodipodi:role="line"
           y="-59.773617"
           x="952.47858 973.0116">30</tspan></text>
<text
         y="-15.920183"
         x="462.84351"
         id="text4241"
         style="font-style:italic;font-variant:normal;font-weight:normal;font-size:44.83187866px;font-family:CMMIB10;-inkscape-font-specification:CMMIB10;writing-mode:lr-tb;fill:#000000;fill-opacity:1;fill-rule:nonzero;stroke:none"
         transform="scale(1,-1)"><tspan
           id="tspan4243"
           y="-15.920183"
           x="462.84351">N</tspan></text>
<text
         y="-32.189312"
         x="510.57062"
         id="text4245"
         style="font-style:italic;font-variant:normal;font-weight:normal;font-size:31.38217926px;font-family:CMBSY10;-inkscape-font-specification:CMBSY10;writing-mode:lr-tb;fill:#000000;fill-opacity:1;fill-rule:nonzero;stroke:none"
         transform="scale(1,-1)"><tspan
           id="tspan4247"
           y="-32.189312"
           x="510.57062">−</tspan></text>
<text
         y="-32.189312"
         x="538.64008"
         id="text4249"
         style="font-variant:normal;font-weight:normal;font-size:31.38217926px;font-family:CMBX12;-inkscape-font-specification:CMBX12;writing-mode:lr-tb;fill:#000000;fill-opacity:1;fill-rule:nonzero;stroke:none"
         transform="scale(1,-1)"><tspan
           id="tspan4251"
           y="-32.189312"
           x="538.64008">1</tspan></text>
<text
         y="-32.189312"
         x="556.29254"
         id="text4253"
         style="font-style:italic;font-variant:normal;font-weight:normal;font-size:31.38217926px;font-family:CMMIB10;-inkscape-font-specification:CMMIB10;writing-mode:lr-tb;fill:#000000;fill-opacity:1;fill-rule:nonzero;stroke:none"
         transform="scale(1,-1)"><tspan
           id="tspan4255"
           y="-32.189312"
           x="556.29254">/</tspan></text>
<text
         y="-32.189312"
         x="574.33722"
         id="text4257"
         style="font-variant:normal;font-weight:normal;font-size:31.38217926px;font-family:CMBX12;-inkscape-font-specification:CMBX12;writing-mode:lr-tb;fill:#000000;fill-opacity:1;fill-rule:nonzero;stroke:none"
         transform="scale(1,-1)"><tspan
           id="tspan4259"
           y="-32.189312"
           x="574.33722">3</tspan></text>
<text
         y="-169.30022"
         x="73.61039"
         id="text4261"
         style="font-variant:normal;font-weight:normal;font-size:44.83187866px;font-family:CMR17;-inkscape-font-specification:CMR17;writing-mode:lr-tb;fill:#000000;fill-opacity:1;fill-rule:nonzero;stroke:none"
         transform="scale(1,-1)"><tspan
           id="tspan4263"
           y="-169.30022"
           x="73.61039">0</tspan></text>
<text
         y="-269.25574"
         x="73.61039"
         id="text4265"
         style="font-variant:normal;font-weight:normal;font-size:44.83187866px;font-family:CMR17;-inkscape-font-specification:CMR17;writing-mode:lr-tb;fill:#000000;fill-opacity:1;fill-rule:nonzero;stroke:none"
         transform="scale(1,-1)"><tspan
           id="tspan4267"
           y="-269.25574"
           x="73.61039">1</tspan></text>
<text
         y="-369.21127"
         x="73.61039"
         id="text4269"
         style="font-variant:normal;font-weight:normal;font-size:44.83187866px;font-family:CMR17;-inkscape-font-specification:CMR17;writing-mode:lr-tb;fill:#000000;fill-opacity:1;fill-rule:nonzero;stroke:none"
         transform="scale(1,-1)"><tspan
           id="tspan4271"
           y="-369.21127"
           x="73.61039">2</tspan></text>
<text
         y="-469.16678"
         x="73.61039"
         id="text4273"
         style="font-variant:normal;font-weight:normal;font-size:44.83187866px;font-family:CMR17;-inkscape-font-specification:CMR17;writing-mode:lr-tb;fill:#000000;fill-opacity:1;fill-rule:nonzero;stroke:none"
         transform="scale(1,-1)"><tspan
           id="tspan4275"
           y="-469.16678"
           x="73.61039">3</tspan></text>
<text
         y="-569.12231"
         x="73.61039"
         id="text4277"
         style="font-variant:normal;font-weight:normal;font-size:44.83187866px;font-family:CMR17;-inkscape-font-specification:CMR17;writing-mode:lr-tb;fill:#000000;fill-opacity:1;fill-rule:nonzero;stroke:none"
         transform="scale(1,-1)"><tspan
           id="tspan4279"
           y="-569.12231"
           x="73.61039">4</tspan></text>
<text
         y="-669.07782"
         x="73.61039"
         id="text4281"
         style="font-variant:normal;font-weight:normal;font-size:44.83187866px;font-family:CMR17;-inkscape-font-specification:CMR17;writing-mode:lr-tb;fill:#000000;fill-opacity:1;fill-rule:nonzero;stroke:none"
         transform="scale(1,-1)"><tspan
           id="tspan4283"
           y="-669.07782"
           x="73.61039">5</tspan></text>
<text
         y="38.165455"
         x="343.86584"
         id="text4285"
         style="font-style:italic;font-variant:normal;font-weight:normal;font-size:44.83187866px;font-family:CMMIB10;-inkscape-font-specification:CMMIB10;writing-mode:lr-tb;fill:#000000;fill-opacity:1;fill-rule:nonzero;stroke:none"
         transform="matrix(0,1,1,0,0,0)"><tspan
           id="tspan4287"
           y="38.165455"
           x="343.86584">ω</tspan></text>
<text
         y="44.890205"
         x="376.04703"
         id="text4289"
         style="font-style:italic;font-variant:normal;font-weight:normal;font-size:31.38217926px;font-family:CMMIB10;-inkscape-font-specification:CMMIB10;writing-mode:lr-tb;fill:#000000;fill-opacity:1;fill-rule:nonzero;stroke:none"
         transform="matrix(0,1,1,0,0,0)"><tspan
           id="tspan4291"
           sodipodi:role="line"
           y="44.890205"
           x="376.04703 392.71097">sp</tspan></text>
<text
         y="38.165455"
         x="426.12833"
         id="text4293"
         style="font-variant:normal;font-weight:normal;font-size:44.83187866px;font-family:CMSS17;-inkscape-font-specification:CMSS17;writing-mode:lr-tb;fill:#000000;fill-opacity:1;fill-rule:nonzero;stroke:none"
         transform="matrix(0,1,1,0,0,0)"><tspan
           id="tspan4295"
           sodipodi:role="line"
           y="38.165455"
           x="426.12833 442.49194 461.18686 489.16196">(eV)</tspan></text>
<g
         id="g4297"><g
           clip-path="url(#clipPath4301)"
           id="g4299"><g
             transform="translate(829.44603,277.1432)"
             id="g4305"><g
               id="g4307"><g
                 clip-path="url(#clipPath4311)"
                 id="g4309"><path
                   inkscape:connector-curvature="0"
                   id="path4315"
                   style="fill:#fcc4ad;fill-opacity:1;fill-rule:nonzero;stroke:#fcc4ad;stroke-width:1;stroke-linecap:butt;stroke-linejoin:round;stroke-miterlimit:10;stroke-dasharray:none;stroke-opacity:1"
                   d="m 0,-15 c 3.978047,0 7.793698,1.580495 10.606602,4.393398 C 13.419505,-7.793698 15,-3.978047 15,0 15,3.978047 13.419505,7.793698 10.606602,10.606602 7.793698,13.419505 3.978047,15 0,15 -3.978047,15 -7.793698,13.419505 -10.606602,10.606602 -13.419505,7.793698 -15,3.978047 -15,0 c 0,-3.978047 1.580495,-7.793698 4.393398,-10.606602 C -7.793698,-13.419505 -3.978047,-15 0,-15 Z" /></g></g><g
               transform="translate(-252.30938,-20.469083)"
               id="g4317"><g
                 id="g4319"><g
                   clip-path="url(#clipPath4323)"
                   id="g4321"><path
                     inkscape:connector-curvature="0"
                     id="path4327"
                     style="fill:#fcc4ad;fill-opacity:1;fill-rule:nonzero;stroke:#fcc4ad;stroke-width:1;stroke-linecap:butt;stroke-linejoin:round;stroke-miterlimit:10;stroke-dasharray:none;stroke-opacity:1"
                     d="m 0,-15 c 3.978047,0 7.793698,1.580495 10.606602,4.393398 C 13.419505,-7.793698 15,-3.978047 15,0 15,3.978047 13.419505,7.793698 10.606602,10.606602 7.793698,13.419505 3.978047,15 0,15 -3.978047,15 -7.793698,13.419505 -10.606602,10.606602 -13.419505,7.793698 -15,3.978047 -15,0 c 0,-3.978047 1.580495,-7.793698 4.393398,-10.606602 C -7.793698,-13.419505 -3.978047,-15 0,-15 Z" /></g></g><g
                 transform="translate(-142.72708,-12.638296)"
                 id="g4329"><g
                   id="g4331"><g
                     clip-path="url(#clipPath4335)"
                     id="g4333"><path
                       inkscape:connector-curvature="0"
                       id="path4339"
                       style="fill:#fcc4ad;fill-opacity:1;fill-rule:nonzero;stroke:#fcc4ad;stroke-width:1;stroke-linecap:butt;stroke-linejoin:round;stroke-miterlimit:10;stroke-dasharray:none;stroke-opacity:1"
                       d="m 0,-15 c 3.978047,0 7.793698,1.580495 10.606602,4.393398 C 13.419505,-7.793698 15,-3.978047 15,0 15,3.978047 13.419505,7.793698 10.606602,10.606602 7.793698,13.419505 3.978047,15 0,15 -3.978047,15 -7.793698,13.419505 -10.606602,10.606602 -13.419505,7.793698 -15,3.978047 -15,0 c 0,-3.978047 1.580495,-7.793698 4.393398,-10.606602 C -7.793698,-13.419505 -3.978047,-15 0,-15 Z" /></g></g><g
                   transform="translate(-91.571133,-10.606256)"
                   id="g4341"><g
                     id="g4343"><g
                       clip-path="url(#clipPath4347)"
                       id="g4345"><path
                         inkscape:connector-curvature="0"
                         id="path4351"
                         style="fill:#fcc4ad;fill-opacity:1;fill-rule:nonzero;stroke:#fcc4ad;stroke-width:1;stroke-linecap:butt;stroke-linejoin:round;stroke-miterlimit:10;stroke-dasharray:none;stroke-opacity:1"
                         d="m 0,-15 c 3.978047,0 7.793698,1.580495 10.606602,4.393398 C 13.419505,-7.793698 15,-3.978047 15,0 15,3.978047 13.419505,7.793698 10.606602,10.606602 7.793698,13.419505 3.978047,15 0,15 -3.978047,15 -7.793698,13.419505 -10.606602,10.606602 -13.419505,7.793698 -15,3.978047 -15,0 c 0,-3.978047 1.580495,-7.793698 4.393398,-10.606602 C -7.793698,-13.419505 -3.978047,-15 0,-15 Z" /></g></g><g
                     transform="translate(-63.673898,-6.7404245)"
                     id="g4353"><g
                       id="g4355"><g
                         clip-path="url(#clipPath4359)"
                         id="g4357"><path
                           inkscape:connector-curvature="0"
                           id="path4363"
                           style="fill:#fcc4ad;fill-opacity:1;fill-rule:nonzero;stroke:#fcc4ad;stroke-width:1;stroke-linecap:butt;stroke-linejoin:round;stroke-miterlimit:10;stroke-dasharray:none;stroke-opacity:1"
                           d="m 0,-15 c 3.978047,0 7.793698,1.580495 10.606602,4.393398 C 13.419505,-7.793698 15,-3.978047 15,0 15,3.978047 13.419505,7.793698 10.606602,10.606602 7.793698,13.419505 3.978047,15 0,15 -3.978047,15 -7.793698,13.419505 -10.606602,10.606602 -13.419505,7.793698 -15,3.978047 -15,0 c 0,-3.978047 1.580495,-7.793698 4.393398,-10.606602 C -7.793698,-13.419505 -3.978047,-15 0,-15 Z" /></g></g><g
                       transform="translate(-46.816918,-5.2535662)"
                       id="g4365"><g
                         id="g4367"><g
                           clip-path="url(#clipPath4371)"
                           id="g4369"><path
                             inkscape:connector-curvature="0"
                             id="path4375"
                             style="fill:#fcc4ad;fill-opacity:1;fill-rule:nonzero;stroke:#fcc4ad;stroke-width:1;stroke-linecap:butt;stroke-linejoin:round;stroke-miterlimit:10;stroke-dasharray:none;stroke-opacity:1"
                             d="m 0,-15 c 3.978047,0 7.793698,1.580495 10.606602,4.393398 C 13.419505,-7.793698 15,-3.978047 15,0 15,3.978047 13.419505,7.793698 10.606602,10.606602 7.793698,13.419505 3.978047,15 0,15 -3.978047,15 -7.793698,13.419505 -10.606602,10.606602 -13.419505,7.793698 -15,3.978047 -15,0 c 0,-3.978047 1.580495,-7.793698 4.393398,-10.606602 C -7.793698,-13.419505 -3.978047,-15 0,-15 Z" /></g></g><g
                         transform="translate(-35.861951,-4.0640795)"
                         id="g4377"><g
                           id="g4379"><g
                             clip-path="url(#clipPath4383)"
                             id="g4381"><path
                               inkscape:connector-curvature="0"
                               id="path4387"
                               style="fill:#fcc4ad;fill-opacity:1;fill-rule:nonzero;stroke:#fcc4ad;stroke-width:1;stroke-linecap:butt;stroke-linejoin:round;stroke-miterlimit:10;stroke-dasharray:none;stroke-opacity:1"
                               d="m 0,-15 c 3.978047,0 7.793698,1.580495 10.606602,4.393398 C 13.419505,-7.793698 15,-3.978047 15,0 15,3.978047 13.419505,7.793698 10.606602,10.606602 7.793698,13.419505 3.978047,15 0,15 -3.978047,15 -7.793698,13.419505 -10.606602,10.606602 -13.419505,7.793698 -15,3.978047 -15,0 c 0,-3.978047 1.580495,-7.793698 4.393398,-10.606602 C -7.793698,-13.419505 -3.978047,-15 0,-15 Z" /></g></g><g
                           transform="translate(-28.344915,-3.1224025)"
                           id="g4389"><g
                             id="g4391"><g
                               clip-path="url(#clipPath4395)"
                               id="g4393"><path
                                 inkscape:connector-curvature="0"
                                 id="path4399"
                                 style="fill:#fcc4ad;fill-opacity:1;fill-rule:nonzero;stroke:#fcc4ad;stroke-width:1;stroke-linecap:butt;stroke-linejoin:round;stroke-miterlimit:10;stroke-dasharray:none;stroke-opacity:1"
                                 d="m 0,-15 c 3.978047,0 7.793698,1.580495 10.606602,4.393398 C 13.419505,-7.793698 15,-3.978047 15,0 15,3.978047 13.419505,7.793698 10.606602,10.606602 7.793698,13.419505 3.978047,15 0,15 -3.978047,15 -7.793698,13.419505 -10.606602,10.606602 -13.419505,7.793698 -15,3.978047 -15,0 c 0,-3.978047 1.580495,-7.793698 4.393398,-10.606602 C -7.793698,-13.419505 -3.978047,-15 0,-15 Z" /></g></g><g
                             transform="translate(-22.964885,-2.6267831)"
                             id="g4401"><g
                               id="g4403"><g
                                 clip-path="url(#clipPath4407)"
                                 id="g4405"><path
                                   inkscape:connector-curvature="0"
                                   id="path4411"
                                   style="fill:#fcc4ad;fill-opacity:1;fill-rule:nonzero;stroke:#fcc4ad;stroke-width:1;stroke-linecap:butt;stroke-linejoin:round;stroke-miterlimit:10;stroke-dasharray:none;stroke-opacity:1"
                                   d="m 0,-15 c 3.978047,0 7.793698,1.580495 10.606602,4.393398 C 13.419505,-7.793698 15,-3.978047 15,0 15,3.978047 13.419505,7.793698 10.606602,10.606602 7.793698,13.419505 3.978047,15 0,15 -3.978047,15 -7.793698,13.419505 -10.606602,10.606602 -13.419505,7.793698 -15,3.978047 -15,0 c 0,-3.978047 1.580495,-7.793698 4.393398,-10.606602 C -7.793698,-13.419505 -3.978047,-15 0,-15 Z" /></g></g></g></g></g></g></g></g></g></g></g></g></g><g
         id="g4413"><g
           clip-path="url(#clipPath4417)"
           id="g4415"><path
             inkscape:connector-curvature="0"
             id="path4421"
             style="fill:none;stroke:#fcc4ad;stroke-width:9;stroke-linecap:butt;stroke-linejoin:round;stroke-miterlimit:10;stroke-dasharray:57.6, 14.4, 9, 14.4;stroke-dashoffset:0;stroke-opacity:1"
             d="m 126.19327,212.88644 34.33964,3.04138 34.33964,3.04137 34.33964,3.04138 34.33964,3.04137 34.33964,3.04138 34.33963,3.04137 34.33964,3.04138 34.33964,3.04137 34.33964,3.04138 34.33964,3.04137 34.33964,3.04138 34.33964,3.04138 34.33963,3.04137 34.33964,3.04138 34.33964,3.04137 34.33964,3.04138 34.33964,3.04137 34.33964,3.04138 34.33963,3.04137 34.33964,3.04138" /></g></g><g
         id="g4423"><g
           clip-path="url(#clipPath4427)"
           id="g4425"><g
             transform="translate(829.44603,361.46783)"
             id="g4431"><g
               id="g4433"><g
                 clip-path="url(#clipPath4437)"
                 id="g4435"><path
                   inkscape:connector-curvature="0"
                   id="path4441"
                   style="fill:#fca082;fill-opacity:1;fill-rule:nonzero;stroke:#fca082;stroke-width:1;stroke-linecap:butt;stroke-linejoin:miter;stroke-miterlimit:10;stroke-dasharray:none;stroke-opacity:1"
                   d="m -15,-15 30,0 0,30 -30,0 0,-30 z" /></g></g><g
               transform="translate(-252.30938,-5.9895904)"
               id="g4443"><g
                 id="g4445"><g
                   clip-path="url(#clipPath4449)"
                   id="g4447"><path
                     inkscape:connector-curvature="0"
                     id="path4453"
                     style="fill:#fca082;fill-opacity:1;fill-rule:nonzero;stroke:#fca082;stroke-width:1;stroke-linecap:butt;stroke-linejoin:miter;stroke-miterlimit:10;stroke-dasharray:none;stroke-opacity:1"
                     d="m -15,-15 30,0 0,30 -30,0 0,-30 z" /></g></g><g
                 transform="translate(-142.72708,-3.8898471)"
                 id="g4455"><g
                   id="g4457"><g
                     clip-path="url(#clipPath4461)"
                     id="g4459"><path
                       inkscape:connector-curvature="0"
                       id="path4465"
                       style="fill:#fca082;fill-opacity:1;fill-rule:nonzero;stroke:#fca082;stroke-width:1;stroke-linecap:butt;stroke-linejoin:miter;stroke-miterlimit:10;stroke-dasharray:none;stroke-opacity:1"
                       d="m -15,-15 30,0 0,30 -30,0 0,-30 z" /></g></g><g
                   transform="translate(-91.571133,-1.6062553)"
                   id="g4467"><g
                     id="g4469"><g
                       clip-path="url(#clipPath4473)"
                       id="g4471"><path
                         inkscape:connector-curvature="0"
                         id="path4477"
                         style="fill:#fca082;fill-opacity:1;fill-rule:nonzero;stroke:#fca082;stroke-width:1;stroke-linecap:butt;stroke-linejoin:miter;stroke-miterlimit:10;stroke-dasharray:none;stroke-opacity:1"
                         d="m -15,-15 30,0 0,30 -30,0 0,-30 z" /></g></g><g
                     transform="translate(-63.673898,-1.2966157)"
                     id="g4479"><g
                       id="g4481"><g
                         clip-path="url(#clipPath4485)"
                         id="g4483"><path
                           inkscape:connector-curvature="0"
                           id="path4489"
                           style="fill:#fca082;fill-opacity:1;fill-rule:nonzero;stroke:#fca082;stroke-width:1;stroke-linecap:butt;stroke-linejoin:miter;stroke-miterlimit:10;stroke-dasharray:none;stroke-opacity:1"
                           d="m -15,-15 30,0 0,30 -30,0 0,-30 z" /></g></g><g
                       transform="translate(-82.678869,-2.8620969)"
                       id="g4491"><g
                         id="g4493"><g
                           clip-path="url(#clipPath4497)"
                           id="g4495"><path
                             inkscape:connector-curvature="0"
                             id="path4501"
                             style="fill:#fca082;fill-opacity:1;fill-rule:nonzero;stroke:#fca082;stroke-width:1;stroke-linecap:butt;stroke-linejoin:miter;stroke-miterlimit:10;stroke-dasharray:none;stroke-opacity:1"
                             d="m -15,-15 30,0 0,30 -30,0 0,-30 z" /></g></g><g
                         transform="translate(-28.344915,-1.1823674)"
                         id="g4503"><g
                           id="g4505"><g
                             clip-path="url(#clipPath4509)"
                             id="g4507"><path
                               inkscape:connector-curvature="0"
                               id="path4513"
                               style="fill:#fca082;fill-opacity:1;fill-rule:nonzero;stroke:#fca082;stroke-width:1;stroke-linecap:butt;stroke-linejoin:miter;stroke-miterlimit:10;stroke-dasharray:none;stroke-opacity:1"
                               d="m -15,-15 30,0 0,30 -30,0 0,-30 z" /></g></g><g
                           transform="translate(-22.964885,-1.0004647)"
                           id="g4515"><g
                             id="g4517"><g
                               clip-path="url(#clipPath4521)"
                               id="g4519"><path
                                 inkscape:connector-curvature="0"
                                 id="path4525"
                                 style="fill:#fca082;fill-opacity:1;fill-rule:nonzero;stroke:#fca082;stroke-width:1;stroke-linecap:butt;stroke-linejoin:miter;stroke-miterlimit:10;stroke-dasharray:none;stroke-opacity:1"
                                 d="m -15,-15 30,0 0,30 -30,0 0,-30 z" /></g></g></g></g></g></g></g></g></g></g></g></g><g
         id="g4527"><g
           clip-path="url(#clipPath4531)"
           id="g4529"><path
             inkscape:connector-curvature="0"
             id="path4535"
             style="fill:none;stroke:#fca082;stroke-width:9;stroke-linecap:square;stroke-linejoin:round;stroke-miterlimit:10;stroke-dasharray:none;stroke-opacity:1"
             d="m 126.19327,344.42016 34.33964,0.78722 34.33964,0.78723 34.33964,0.78723 34.33964,0.78722 34.33964,0.78723 34.33963,0.78722 34.33964,0.78723 34.33964,0.78723 34.33964,0.78722 34.33964,0.78723 34.33964,0.78722 34.33964,0.78723 34.33963,0.78723 34.33964,0.78722 34.33964,0.78723 34.33964,0.78722 34.33964,0.78723 34.33964,0.78723 34.33963,0.78722 34.33964,0.78723" /></g></g><g
         id="g4765"><g
           clip-path="url(#clipPath4769)"
           id="g4767"><g
             transform="translate(829.44603,483.02352)"
             id="g4773"><g
               id="g4775"><g
                 clip-path="url(#clipPath4779)"
                 id="g4777"><path
                   inkscape:connector-curvature="0"
                   id="path4783"
                   style="fill:#e32f27;fill-opacity:1;fill-rule:nonzero;stroke:#e32f27;stroke-width:1;stroke-linecap:butt;stroke-linejoin:round;stroke-miterlimit:10;stroke-dasharray:none;stroke-opacity:1"
                   d="m 0,-15 c 3.978047,0 7.793698,1.580495 10.606602,4.393398 C 13.419505,-7.793698 15,-3.978047 15,0 15,3.978047 13.419505,7.793698 10.606602,10.606602 7.793698,13.419505 3.978047,15 0,15 -3.978047,15 -7.793698,13.419505 -10.606602,10.606602 -13.419505,7.793698 -15,3.978047 -15,0 c 0,-3.978047 1.580495,-7.793698 4.393398,-10.606602 C -7.793698,-13.419505 -3.978047,-15 0,-15 Z" /></g></g><g
               transform="translate(-252.30938,25.871335)"
               id="g4785"><g
                 id="g4787"><g
                   clip-path="url(#clipPath4791)"
                   id="g4789"><path
                     inkscape:connector-curvature="0"
                     id="path4795"
                     style="fill:#e32f27;fill-opacity:1;fill-rule:nonzero;stroke:#e32f27;stroke-width:1;stroke-linecap:butt;stroke-linejoin:round;stroke-miterlimit:10;stroke-dasharray:none;stroke-opacity:1"
                     d="m 0,-15 c 3.978047,0 7.793698,1.580495 10.606602,4.393398 C 13.419505,-7.793698 15,-3.978047 15,0 15,3.978047 13.419505,7.793698 10.606602,10.606602 7.793698,13.419505 3.978047,15 0,15 -3.978047,15 -7.793698,13.419505 -10.606602,10.606602 -13.419505,7.793698 -15,3.978047 -15,0 c 0,-3.978047 1.580495,-7.793698 4.393398,-10.606602 C -7.793698,-13.419505 -3.978047,-15 0,-15 Z" /></g></g><g
                 transform="translate(-142.72708,-3.2710884)"
                 id="g4797"><g
                   id="g4799"><g
                     clip-path="url(#clipPath4803)"
                     id="g4801"><path
                       inkscape:connector-curvature="0"
                       id="path4807"
                       style="fill:#e32f27;fill-opacity:1;fill-rule:nonzero;stroke:#e32f27;stroke-width:1;stroke-linecap:butt;stroke-linejoin:round;stroke-miterlimit:10;stroke-dasharray:none;stroke-opacity:1"
                       d="m 0,-15 c 3.978047,0 7.793698,1.580495 10.606602,4.393398 C 13.419505,-7.793698 15,-3.978047 15,0 15,3.978047 13.419505,7.793698 10.606602,10.606602 7.793698,13.419505 3.978047,15 0,15 -3.978047,15 -7.793698,13.419505 -10.606602,10.606602 -13.419505,7.793698 -15,3.978047 -15,0 c 0,-3.978047 1.580495,-7.793698 4.393398,-10.606602 C -7.793698,-13.419505 -3.978047,-15 0,-15 Z" /></g></g><g
                   transform="translate(-91.571133,0.9912389)"
                   id="g4809"><g
                     id="g4811"><g
                       clip-path="url(#clipPath4815)"
                       id="g4813"><path
                         inkscape:connector-curvature="0"
                         id="path4819"
                         style="fill:#e32f27;fill-opacity:1;fill-rule:nonzero;stroke:#e32f27;stroke-width:1;stroke-linecap:butt;stroke-linejoin:round;stroke-miterlimit:10;stroke-dasharray:none;stroke-opacity:1"
                         d="m 0,-15 c 3.978047,0 7.793698,1.580495 10.606602,4.393398 C 13.419505,-7.793698 15,-3.978047 15,0 15,3.978047 13.419505,7.793698 10.606602,10.606602 7.793698,13.419505 3.978047,15 0,15 -3.978047,15 -7.793698,13.419505 -10.606602,10.606602 -13.419505,7.793698 -15,3.978047 -15,0 c 0,-3.978047 1.580495,-7.793698 4.393398,-10.606602 C -7.793698,-13.419505 -3.978047,-15 0,-15 Z" /></g></g><g
                     transform="translate(-63.673898,3.56846)"
                     id="g4821"><g
                       id="g4823"><g
                         clip-path="url(#clipPath4827)"
                         id="g4825"><path
                           inkscape:connector-curvature="0"
                           id="path4831"
                           style="fill:#e32f27;fill-opacity:1;fill-rule:nonzero;stroke:#e32f27;stroke-width:1;stroke-linecap:butt;stroke-linejoin:round;stroke-miterlimit:10;stroke-dasharray:none;stroke-opacity:1"
                           d="m 0,-15 c 3.978047,0 7.793698,1.580495 10.606602,4.393398 C 13.419505,-7.793698 15,-3.978047 15,0 15,3.978047 13.419505,7.793698 10.606602,10.606602 7.793698,13.419505 3.978047,15 0,15 -3.978047,15 -7.793698,13.419505 -10.606602,10.606602 -13.419505,7.793698 -15,3.978047 -15,0 c 0,-3.978047 1.580495,-7.793698 4.393398,-10.606602 C -7.793698,-13.419505 -3.978047,-15 0,-15 Z" /></g></g></g></g></g></g></g></g></g><g
         id="g4833"><g
           clip-path="url(#clipPath4837)"
           id="g4835"><path
             inkscape:connector-curvature="0"
             id="path4841"
             style="fill:none;stroke:#e32f27;stroke-width:9;stroke-linecap:butt;stroke-linejoin:round;stroke-miterlimit:10;stroke-dasharray:57.6, 14.4, 9, 14.4;stroke-dashoffset:0;stroke-opacity:1"
             d="m 126.19327,516.45585 34.33964,-1.24167 34.33964,-1.24166 34.33964,-1.24167 34.33964,-1.24167 34.33964,-1.24166 34.33963,-1.24167 34.33964,-1.24167 34.33964,-1.24166 34.33964,-1.24167 34.33964,-1.24167 34.33964,-1.24166 34.33964,-1.24167 34.33963,-1.24166 34.33964,-1.24167 34.33964,-1.24167 34.33964,-1.24166 34.33964,-1.24167 34.33964,-1.24167 34.33963,-1.24166 34.33964,-1.24167" /></g></g><g
         id="g4843"><g
           clip-path="url(#clipPath4847)"
           id="g4845"><g
             transform="translate(829.44603,467.51063)"
             id="g4851"><g
               id="g4853"><g
                 clip-path="url(#clipPath4857)"
                 id="g4855"><path
                   inkscape:connector-curvature="0"
                   id="path4861"
                   style="fill:#67000d;fill-opacity:1;fill-rule:nonzero;stroke:#67000d;stroke-width:1;stroke-linecap:butt;stroke-linejoin:miter;stroke-miterlimit:10;stroke-dasharray:none;stroke-opacity:1"
                   d="M 0,-21.213203 21.213203,0 0,21.213203 -21.213203,0 0,-21.213203 Z" /></g></g><g
               transform="translate(-252.30938,27.556441)"
               id="g4863"><g
                 id="g4865"><g
                   clip-path="url(#clipPath4869)"
                   id="g4867"><path
                     inkscape:connector-curvature="0"
                     id="path4873"
                     style="fill:#67000d;fill-opacity:1;fill-rule:nonzero;stroke:#67000d;stroke-width:1;stroke-linecap:butt;stroke-linejoin:miter;stroke-miterlimit:10;stroke-dasharray:none;stroke-opacity:1"
                     d="M 0,-21.213203 21.213203,0 0,21.213203 -21.213203,0 0,-21.213203 Z" /></g></g><g
                 transform="translate(-142.72708,0.14868583)"
                 id="g4875"><g
                   id="g4877"><g
                     clip-path="url(#clipPath4881)"
                     id="g4879"><path
                       inkscape:connector-curvature="0"
                       id="path4885"
                       style="fill:#67000d;fill-opacity:1;fill-rule:nonzero;stroke:#67000d;stroke-width:1;stroke-linecap:butt;stroke-linejoin:miter;stroke-miterlimit:10;stroke-dasharray:none;stroke-opacity:1"
                       d="M 0,-21.213203 21.213203,0 0,21.213203 -21.213203,0 0,-21.213203 Z" /></g></g><g
                   transform="translate(-91.571133,-1.9329159)"
                   id="g4887"><g
                     id="g4889"><g
                       clip-path="url(#clipPath4893)"
                       id="g4891"><path
                         inkscape:connector-curvature="0"
                         id="path4897"
                         style="fill:#67000d;fill-opacity:1;fill-rule:nonzero;stroke:#67000d;stroke-width:1;stroke-linecap:butt;stroke-linejoin:miter;stroke-miterlimit:10;stroke-dasharray:none;stroke-opacity:1"
                         d="M 0,-21.213203 21.213203,0 0,21.213203 -21.213203,0 0,-21.213203 Z" /></g></g><g
                     transform="translate(-63.673898,3.8162698)"
                     id="g4899"><g
                       id="g4901"><g
                         clip-path="url(#clipPath4905)"
                         id="g4903"><path
                           inkscape:connector-curvature="0"
                           id="path4909"
                           style="fill:#67000d;fill-opacity:1;fill-rule:nonzero;stroke:#67000d;stroke-width:1;stroke-linecap:butt;stroke-linejoin:miter;stroke-miterlimit:10;stroke-dasharray:none;stroke-opacity:1"
                           d="M 0,-21.213203 21.213203,0 0,21.213203 -21.213203,0 0,-21.213203 Z" /></g></g><g
                       transform="translate(-46.816918,2.676345)"
                       id="g4911"><g
                         id="g4913"><g
                           clip-path="url(#clipPath4917)"
                           id="g4915"><path
                             inkscape:connector-curvature="0"
                             id="path4921"
                             style="fill:#67000d;fill-opacity:1;fill-rule:nonzero;stroke:#67000d;stroke-width:1;stroke-linecap:butt;stroke-linejoin:miter;stroke-miterlimit:10;stroke-dasharray:none;stroke-opacity:1"
                             d="M 0,-21.213203 21.213203,0 0,21.213203 -21.213203,0 0,-21.213203 Z" /></g></g><g
                         transform="translate(-35.861951,0.9912389)"
                         id="g4923"><g
                           id="g4925"><g
                             clip-path="url(#clipPath4929)"
                             id="g4927"><path
                               inkscape:connector-curvature="0"
                               id="path4933"
                               style="fill:#67000d;fill-opacity:1;fill-rule:nonzero;stroke:#67000d;stroke-width:1;stroke-linecap:butt;stroke-linejoin:miter;stroke-miterlimit:10;stroke-dasharray:none;stroke-opacity:1"
                               d="M 0,-21.213203 21.213203,0 0,21.213203 -21.213203,0 0,-21.213203 Z" /></g></g><g
                           transform="translate(-28.344915,16.702375)"
                           id="g4935"><g
                             id="g4937"><g
                               clip-path="url(#clipPath4941)"
                               id="g4939"><path
                                 inkscape:connector-curvature="0"
                                 id="path4945"
                                 style="fill:#67000d;fill-opacity:1;fill-rule:nonzero;stroke:#67000d;stroke-width:1;stroke-linecap:butt;stroke-linejoin:miter;stroke-miterlimit:10;stroke-dasharray:none;stroke-opacity:1"
                                 d="M 0,-21.213203 21.213203,0 0,21.213203 -21.213203,0 0,-21.213203 Z" /></g></g><g
                             transform="translate(-22.964885,6.294367)"
                             id="g4947"><g
                               id="g4949"><g
                                 clip-path="url(#clipPath4953)"
                                 id="g4951"><path
                                   inkscape:connector-curvature="0"
                                   id="path4957"
                                   style="fill:#67000d;fill-opacity:1;fill-rule:nonzero;stroke:#67000d;stroke-width:1;stroke-linecap:butt;stroke-linejoin:miter;stroke-miterlimit:10;stroke-dasharray:none;stroke-opacity:1"
                                   d="M 0,-21.213203 21.213203,0 0,21.213203 -21.213203,0 0,-21.213203 Z" /></g></g></g></g></g></g></g></g></g></g></g></g></g><g
         id="g4959"><g
           clip-path="url(#clipPath4963)"
           id="g4961"><path
             inkscape:connector-curvature="0"
             id="path4967"
             style="fill:none;stroke:#67000d;stroke-width:9;stroke-linecap:square;stroke-linejoin:round;stroke-miterlimit:10;stroke-dasharray:none;stroke-opacity:1"
             d="m 126.19327,510.14979 34.33964,-1.5824 34.33964,-1.58239 34.33964,-1.58239 34.33964,-1.5824 34.33964,-1.58239 34.33963,-1.58239 34.33964,-1.58239 34.33964,-1.5824 34.33964,-1.58239 34.33964,-1.58239 34.33964,-1.58239 34.33964,-1.5824 34.33963,-1.58239 34.33964,-1.58239 34.33964,-1.58239 34.33964,-1.5824 34.33964,-1.58239 34.33964,-1.58239 34.33963,-1.58239 34.33964,-1.5824" /></g></g><g
         id="g4969"><path
           inkscape:connector-curvature="0"
           id="path4971"
           style="fill:none;stroke:#000000;stroke-width:1;stroke-linecap:square;stroke-linejoin:miter;stroke-miterlimit:10;stroke-dasharray:none;stroke-opacity:1"
           d="m 98.171103,94.906867 0,659.706453" /><path
           inkscape:connector-curvature="0"
           id="path4973"
           style="fill:none;stroke:#000000;stroke-width:1;stroke-linecap:square;stroke-linejoin:miter;stroke-miterlimit:10;stroke-dasharray:none;stroke-opacity:1"
           d="m 956.66206,94.906867 0,659.706453" /><path
           inkscape:connector-curvature="0"
           id="path4975"
           style="fill:none;stroke:#000000;stroke-width:1;stroke-linecap:square;stroke-linejoin:miter;stroke-miterlimit:10;stroke-dasharray:none;stroke-opacity:1"
           d="m 98.171103,94.906867 858.490957,0" /><path
           inkscape:connector-curvature="0"
           id="path4977"
           style="fill:none;stroke:#000000;stroke-width:1;stroke-linecap:square;stroke-linejoin:miter;stroke-miterlimit:10;stroke-dasharray:none;stroke-opacity:1"
           d="m 98.171103,754.61332 858.490957,0" /><text
           id="text4979"
           style="font-variant:normal;font-weight:normal;font-size:44.83187866px;font-family:CMSS17;-inkscape-font-specification:CMSS17;writing-mode:lr-tb;fill:#000000;fill-opacity:1;fill-rule:nonzero;stroke:none"
           transform="matrix(1,0,0,-1,141.09565,682.04561)"><tspan
             id="tspan4981"
             sodipodi:role="line"
             y="0"
             x="0 20.174347">a)</tspan></text>
<text
           id="text4983"
           style="font-variant:normal;font-weight:normal;font-size:44.83187866px;font-family:CMSS17;-inkscape-font-specification:CMSS17;writing-mode:lr-tb;fill:#000000;fill-opacity:1;fill-rule:nonzero;stroke:none"
           transform="matrix(1,0,0,-1,853.64315,682.04561)"><tspan
             id="tspan4985"
             sodipodi:role="line"
             y="0"
             x="0 29.723537">Na</tspan></text>
<path
           inkscape:connector-curvature="0"
           id="path4987"
           style="fill:#4c4c4c;fill-opacity:0.5;fill-rule:nonzero;stroke:#4c4c4c;stroke-width:1;stroke-linecap:butt;stroke-linejoin:miter;stroke-miterlimit:10;stroke-dasharray:none;stroke-opacity:0.5"
           d="m 532.05965,107.90687 405.60241,0 c 4,0 6,2 6,6 l 0,122.44035 c 0,4 -2,6 -6,6 l -405.60241,0 c -4,0 -6,-2 -6,-6 l 0,-122.44035 c 0,-4 2,-6 6,-6 z" /><path
           inkscape:connector-curvature="0"
           id="path4989"
           style="fill:#ffffff;fill-opacity:0.8;fill-rule:nonzero;stroke:#cccccc;stroke-width:1;stroke-linecap:butt;stroke-linejoin:miter;stroke-miterlimit:10;stroke-dasharray:none;stroke-opacity:0.8"
           d="m 530.05965,109.90687 405.60241,0 c 4,0 6,2 6,6 l 0,122.44035 c 0,4 -2,6 -6,6 l -405.60241,0 c -4,0 -6,-2 -6,-6 l 0,-122.44035 c 0,-4 2,-6 6,-6 z" /><path
           inkscape:connector-curvature="0"
           id="path4991"
           style="fill:#fcc4ad;fill-opacity:1;fill-rule:nonzero;stroke:#fcc4ad;stroke-width:1;stroke-linecap:butt;stroke-linejoin:round;stroke-miterlimit:10;stroke-dasharray:none;stroke-opacity:1"
           d="m 566.05965,206.84722 c 3.97805,0 7.7937,1.58049 10.6066,4.3934 2.81291,2.8129 4.3934,6.62855 4.3934,10.6066 0,3.97804 -1.58049,7.7937 -4.3934,10.6066 -2.8129,2.8129 -6.62855,4.3934 -10.6066,4.3934 -3.97804,0 -7.7937,-1.5805 -10.6066,-4.3934 -2.8129,-2.8129 -4.3934,-6.62856 -4.3934,-10.6066 0,-3.97805 1.5805,-7.7937 4.3934,-10.6066 2.8129,-2.81291 6.62856,-4.3934 10.6066,-4.3934 z" /><text
           id="text4993"
           style="font-style:italic;font-variant:normal;font-weight:normal;font-size:29.88792038px;font-family:CMMI12;-inkscape-font-specification:CMMI12;writing-mode:lr-tb;fill:#000000;fill-opacity:1;fill-rule:nonzero;stroke:none"
           transform="matrix(1,0,0,-1,620.05965,211.34722)"><tspan
             id="tspan4995"
             y="0"
             x="0">λ</tspan></text>
<text
           id="text4997"
           style="font-variant:normal;font-weight:normal;font-size:29.88792038px;font-family:CMR17;-inkscape-font-specification:CMR17;writing-mode:lr-tb;fill:#000000;fill-opacity:1;fill-rule:nonzero;stroke:none"
           transform="matrix(1,0,0,-1,645.43302,211.34722)"><tspan
             id="tspan4999"
             y="0"
             x="0">=</tspan></text>
<text
           id="text5001"
           style="font-variant:normal;font-weight:normal;font-size:29.88792038px;font-family:CMSS17;-inkscape-font-specification:CMSS17;writing-mode:lr-tb;fill:#000000;fill-opacity:1;fill-rule:nonzero;stroke:none"
           transform="matrix(1,0,0,-1,666.94745,211.34722)"><tspan
             id="tspan5003"
             sodipodi:role="line"
             y="0"
             x="0 14.047322 21.84807">0.0</tspan></text>
<path
           inkscape:connector-curvature="0"
           id="path5005"
           style="fill:#fca082;fill-opacity:1;fill-rule:nonzero;stroke:#fca082;stroke-width:1;stroke-linecap:butt;stroke-linejoin:miter;stroke-miterlimit:10;stroke-dasharray:none;stroke-opacity:1"
           d="m 551.05965,165.03377 30,0 0,30 -30,0 0,-30 z" /><text
           id="text5007"
           style="font-style:italic;font-variant:normal;font-weight:normal;font-size:29.88792038px;font-family:CMMI12;-inkscape-font-specification:CMMI12;writing-mode:lr-tb;fill:#000000;fill-opacity:1;fill-rule:nonzero;stroke:none"
           transform="matrix(1,0,0,-1,620.05965,169.53377)"><tspan
             id="tspan5009"
             y="0"
             x="0">λ</tspan></text>
<text
           id="text5011"
           style="font-variant:normal;font-weight:normal;font-size:29.88792038px;font-family:CMR17;-inkscape-font-specification:CMR17;writing-mode:lr-tb;fill:#000000;fill-opacity:1;fill-rule:nonzero;stroke:none"
           transform="matrix(1,0,0,-1,645.43302,169.53377)"><tspan
             id="tspan5013"
             y="0"
             x="0">=</tspan></text>
<text
           id="text5015"
           style="font-variant:normal;font-weight:normal;font-size:29.88792038px;font-family:CMSS17;-inkscape-font-specification:CMSS17;writing-mode:lr-tb;fill:#000000;fill-opacity:1;fill-rule:nonzero;stroke:none"
           transform="matrix(1,0,0,-1,666.94745,169.53377)"><tspan
             id="tspan5017"
             sodipodi:role="line"
             y="0"
             x="0 14.047322 21.84807">0.2</tspan></text>
<path
           inkscape:connector-curvature="0"
           id="path5047"
           style="fill:#e32f27;fill-opacity:1;fill-rule:nonzero;stroke:#e32f27;stroke-width:1;stroke-linecap:butt;stroke-linejoin:round;stroke-miterlimit:10;stroke-dasharray:none;stroke-opacity:1"
           d="m 792.86086,165.03377 c 3.97804,0 7.7937,1.58049 10.6066,4.3934 2.8129,2.8129 4.3934,6.62855 4.3934,10.6066 0,3.97804 -1.5805,7.7937 -4.3934,10.6066 -2.8129,2.8129 -6.62856,4.3934 -10.6066,4.3934 -3.97805,0 -7.7937,-1.5805 -10.6066,-4.3934 -2.81291,-2.8129 -4.3934,-6.62856 -4.3934,-10.6066 0,-3.97805 1.58049,-7.7937 4.3934,-10.6066 2.8129,-2.81291 6.62855,-4.3934 10.6066,-4.3934 z" /><text
           id="text5049"
           style="font-variant:normal;font-weight:normal;font-size:29.88792038px;font-family:CMSS17;-inkscape-font-specification:CMSS17;writing-mode:lr-tb;fill:#000000;fill-opacity:1;fill-rule:nonzero;stroke:none"
           transform="matrix(1,0,0,-1,846.86086,169.53377)"><tspan
             id="tspan5051"
             sodipodi:role="line"
             y="0"
             x="0 14.047322 28.483189">2p6</tspan></text>
<path
           inkscape:connector-curvature="0"
           id="path5053"
           style="fill:#67000d;fill-opacity:1;fill-rule:nonzero;stroke:#67000d;stroke-width:1;stroke-linecap:butt;stroke-linejoin:miter;stroke-miterlimit:10;stroke-dasharray:none;stroke-opacity:1"
           d="m 792.86086,117.00711 21.2132,21.21321 -21.2132,21.2132 -21.21321,-21.2132 21.21321,-21.21321 z" /><text
           id="text5055"
           style="font-style:italic;font-variant:normal;font-weight:normal;font-size:29.88792038px;font-family:CMMI12;-inkscape-font-specification:CMMI12;writing-mode:lr-tb;fill:#000000;fill-opacity:1;fill-rule:nonzero;stroke:none"
           transform="matrix(1,0,0,-1,846.86086,127.72032)"><tspan
             id="tspan5057"
             y="0"
             x="0">λ</tspan></text>
<text
           id="text5059"
           style="font-variant:normal;font-weight:normal;font-size:29.88792038px;font-family:CMR17;-inkscape-font-specification:CMR17;writing-mode:lr-tb;fill:#000000;fill-opacity:1;fill-rule:nonzero;stroke:none"
           transform="matrix(1,0,0,-1,872.23423,127.72032)"><tspan
             id="tspan5061"
             y="0"
             x="0">=</tspan></text>
<text
           id="text5063"
           style="font-variant:normal;font-weight:normal;font-size:29.88792038px;font-family:CMSS17;-inkscape-font-specification:CMSS17;writing-mode:lr-tb;fill:#000000;fill-opacity:1;fill-rule:nonzero;stroke:none"
           transform="matrix(1,0,0,-1,893.74866,127.72032)"><tspan
             id="tspan5065"
             sodipodi:role="line"
             y="0"
             x="0 14.047322 21.84807">1.0</tspan></text>
<text
           id="text5067"
           style="font-variant:normal;font-weight:normal;font-size:44.83187866px;font-family:CMR17;-inkscape-font-specification:CMR17;writing-mode:lr-tb;fill:#000000;fill-opacity:1;fill-rule:nonzero;stroke:none"
           transform="matrix(1,0,0,-1,808.88531,767.3335)"><tspan
             id="tspan5069"
             sodipodi:role="line"
             y="0"
             x="0 20.533001">55</tspan></text>
<text
           id="text5071"
           style="font-variant:normal;font-weight:normal;font-size:44.83187866px;font-family:CMR17;-inkscape-font-specification:CMR17;writing-mode:lr-tb;fill:#000000;fill-opacity:1;fill-rule:nonzero;stroke:none"
           transform="matrix(1,0,0,-1,546.29558,767.3335)"><tspan
             id="tspan5073"
             sodipodi:role="line"
             y="0"
             x="0 20.533001 41.066002">147</tspan></text>
<text
           id="text5075"
           style="font-variant:normal;font-weight:normal;font-size:44.83187866px;font-family:CMR17;-inkscape-font-specification:CMR17;writing-mode:lr-tb;fill:#000000;fill-opacity:1;fill-rule:nonzero;stroke:none"
           transform="matrix(1,0,0,-1,311.99736,767.3335)"><tspan
             id="tspan5077"
             sodipodi:role="line"
             y="0"
             x="0 20.533001 41.066002">561</tspan></text>
<text
           id="text5079"
           style="font-variant:normal;font-weight:normal;font-size:44.83187866px;font-family:CMR17;-inkscape-font-specification:CMR17;writing-mode:lr-tb;fill:#000000;fill-opacity:1;fill-rule:nonzero;stroke:none"
           transform="matrix(1,0,0,-1,85.071845,767.3335)"><tspan
             id="tspan5081"
             sodipodi:role="line"
             y="0"
             x="0 20.533001 41.066002 61.599003">5083</tspan></text>
<text
           id="text5083"
           style="font-variant:normal;font-weight:normal;font-size:44.83187866px;font-family:CMSS17;-inkscape-font-specification:CMSS17;writing-mode:lr-tb;fill:#000000;fill-opacity:1;fill-rule:nonzero;stroke:none"
           transform="matrix(1,0,0,-1,372.9496,818.46675)"><tspan
             id="tspan5085"
             sodipodi:role="line"
             y="0"
             x="0 29.723537 51.377335 84.777084 107.60198 126.29688 154.69617 175.76715 202.687 222.86134 238.05934 259.13034 292.53009">Numberofatoms</tspan></text>
<path
           inkscape:connector-curvature="0"
           id="path5087"
           style="fill:none;stroke:#000000;stroke-width:1;stroke-linecap:square;stroke-linejoin:miter;stroke-miterlimit:10;stroke-dasharray:none;stroke-opacity:1"
           d="m 98.171103,94.906867 0,659.706453" /><path
           inkscape:connector-curvature="0"
           id="path5089"
           style="fill:none;stroke:#000000;stroke-width:1;stroke-linecap:square;stroke-linejoin:miter;stroke-miterlimit:10;stroke-dasharray:none;stroke-opacity:1"
           d="m 956.66206,94.906867 0,659.706453" /><path
           inkscape:connector-curvature="0"
           id="path5091"
           style="fill:none;stroke:#000000;stroke-width:1;stroke-linecap:square;stroke-linejoin:miter;stroke-miterlimit:10;stroke-dasharray:none;stroke-opacity:1"
           d="m 98.171103,94.906867 858.490957,0" /><path
           inkscape:connector-curvature="0"
           id="path5093"
           style="fill:none;stroke:#000000;stroke-width:1;stroke-linecap:square;stroke-linejoin:miter;stroke-miterlimit:10;stroke-dasharray:none;stroke-opacity:1"
           d="m 98.171103,754.61332 858.490957,0" /></g></g><image
       y="-467.42432"
       x="1166.9673"
       id="image5118"
       xlink:href="data:image/png;base64,iVBORw0KGgoAAAANSUhEUgAAAv0AAABTCAQAAACmRnAoAAAABGdBTUEAALGPC/xhBQAAAAJiS0dE AP+Hj8y/AAAAB3RJTUUH4gYQDQwNkt0S9AAAEStJREFUeNrtXe1567YOftmnAzDpBFU2sM+doM4G Ts8GzgbO0wnO42zgbNA6G8idoLU3sO8EN9YGvD9MUaS+PyiJlPDiR6TYoikCgggQBJgAgTBtsDWO Ihq7FwTCMGAb8VH9rZ/G7iaB0CdYwE44YDV2PwiEYcAC7NmNVUo8qX7ChMEWOGGBD/E5dk8IhGEg rngFR8jW5d8j1U+YLNgKJ3AcxevYPSEQhoP4wBuAA9uUfYtUP2EwsAW7McFu7MT21QZp519bIwRw Fs9j3zeBMCzEOz4A7Nm27EuFBI5LycdZ2pd/jF1lC7smP0fkGyHAaSh+YwUBgRt4w+tI6r0n4qGA AEIICGyKPi+b9X9D0OhV81jxOS21zRziKpZ4QBJ9sGUXxvv4JRYgBAAsG0f2kNT7D+IhAPGMK4BC +5qVBXeyBR7B8QiA4z/ILhtc8Yn/IcIXInyJc3lXGMcGz7nDeMURF5zFcezhIgwBtkNiiJ7F0nr7 HCcEAF7rBLllriap9x7EQwBgAS4AgCdxzfm4gQGxT/1j1coM2RqnN2wRjG0aEQ1NuGkn1o1lHCAg EFppi6Tee5ovD2WfL3mfNVnmNc2i95Zvukg7ehMP4j33jUSYNn5ox9vWreSCbeUs78VKcyT1/mO2 PBTvOAMI2D7vw/pvkJtxumj5HooXYBxcGCEaisCN043FlgO7bZLU+09z5qF6HjKWTv0mzIf11rIj d1P80nb4iaZCUhLudLLYbmizRZJ6/2nuPJTursx913f4mIsc/7YxP1iINYB38VS1sEKYPHQTdGEr zodtpJy+WeolSb3/mDsP788CTzt96qt+c2NM2PT3WcAuWOGKpbD1WBI8hjhqvlNg07adFHYAYDHi gqTef8ychyKS4dQbZoa81jYbzE0SDc0eucHmMLbxQ+QOGRtlLlZajGMw1tb6SFLf5H5D3OyNPfHQ 2gjELi/jLppeLKnhT98f8u3YQ0DkEmFhnHYOlFMyauU1YrQoqeHVM5N6qSQtrtsQD62NQryypr34 6l66Nk4bREyDI4TArV0sLdGUyZiPdY6bUFaEtXghkvoWo9VyGbXnXs2ch/K1bNx/XV9/S38ZW+C/ WOGMX93c70YYFfrCU3dvf9zCX9b6R1LfBFXpEMYB8RCAOOK+B2GV+Pvrqn5zlbzmYLANTuD4EM0z qRDmAD2LPmeLLk2xFfi9TYuyRlLvP4iHd8TTrGSpuqbpY/yjppFxjye1uF2HaGpkZPLcd2oplAf2 lnhJ6puN1wYCjjl8iIc5I8Hvf+rN+hu/OVnATtjgimWbBFqE2UB3+fzevhnGpYxGFutxkdT7D+Kh hIgQp52Qz1k91d/QX8ZWOGGBI5YeboAgDAndL8+rSsqVIPbz2/TLktT7D+JhgnhSJHNb9TDrZzuE 4HgXz5PxkxF6gogMafreuqG4BGPjDTslIKn3H8TDBH/GYyL3ztv1l00pIIpoCDKD71q2kewQsJZG l6S+8Yg55+snHqbuMT7YCNTz9dd+c8qAqCuWUwiIIgwB0zfP2oV4xhIaWUyjS1LvP4iHJuJ7ewbq OXxMf1mhD0wGRH2KJ/fzWBMcgq782+XYjyW0P08/Sb2PIB6aiEdgAdRT/ea7s8CbyvbYA3gTdgpk EOYDPcpn1SqH5zf5tz9PP0m9jyAemvhH/g0YR7Wvv46/DEEcnz22N4vIRzJKaTTOl6KKUbQsvJfb Jkl98zFzzNdPPMy52/hwXcfXb745c4wmGRB1P24fnkeYL/QQz+ZRPomEtsrFXtEmQFLvJ4iHKYir SpT+XMfhY/rLMt5UtkUot9ADwB9j3x7BQ5hlW4KGV8cSGlkMySOp9x/EwyziydGqjur/ZpwZ/jLG WSiLY8RYdMvEQpgjxNko2/La8PJY4mwu0ZHU+w/iYRbxMxIAP5d/k3EYA6KHPrEFDghwxDft3Qn8 0TJKg1ABxhHg0RjrfhDhOnikwwe26njdsLxibCVY6zNJvf8gHuYiUmMQVC0MrIxTrQyDXNTZpaot Caj0QERWl2i4sRjaNw1cnAKmIDaopKQt5nXO+K/aJKlvM2pOLfMSD0t4JCCwqnL4FPjLZEDUi3gD 8CN1ja06qwQd3waY7yd47t5EE4irMWdv4vJJVgYuPd09Sb2PIB7mIXnKKmf9J+N0JaACoi7JpnlV /kt0fe+nfi+PUnV2UpU388jrupranR4Gm/dfht/OrurqCjSSIC0RhL10zST1be7CrVn/wDz0gzSF v6ua9Wf8ZXFuO2Pnm/n27JKB8avxFVGP70inIF7Eg2CD0NMI29l/0Y45W9W+Lpn1R9b6QlLvP4bm oR9IJK181p/1l8m5WcYTnJqFdCzNDI6FLJcQ0x6LMk8cOBapN/gOwfR9d1OhjNe19pxVkxNLqdtI 6lv236FZ/1g8dJ+SOy3/mvlA7otz22nLB3dqsFBX+Os3dXhpeFszYOGUSMrZTf9n7WsT1WdL9ZPU t+u5S6p/VB66TOqgQvVnP74UPWApP3SnYnuZX68p0tobPOz++0TDkHxMLykTtKbnXlP93FJ/SOrb 9dwl1T8qD12mZDzK4/rTmxw+S1Ic6ZHZwIa9jVruYMzfJjQA22ELIMKzuLKjtvn+FfVKLXLrXSKp BwCwBR4bXbAE0GydBgC+rKbajuEvD/tGJJ+Yx7L3wyr1j9IyxZllg86R4Z3mPxOJ6pk6KcN8IZAu 21JvFp9IiaUekdTD910kY/PQZVJ8vZVF+JiRse/lZYrFNZUlYx45MQgdIGf8wMu9EmqqpHqHMu0d QFIP+L6LhHhYjDjGh5ep/lrZrjWYOTGmHyhF6ASl+N81la8r/6a5fOyApB6AOOI4mNP0mhrD7iAe 1kGJaWCc1jIm7Aa7OWH6EvVDytVjcCplqteI2UGoDrmVfhmnta4gqb/3w5ll3rF56DLVcPiwymzX OUjnwmuafpcwE6gZ/9lcfhPmXHPw2RdJvf8gHtbCV7HDpyLbdR4yPrVmGRgJM4FS/BF+y3yol22p 4/KJrHaNpN5/EA/LwOODYtXf1F92hzmEm1aVVgmThlL8wG85YXR62ZagRg71ZGt6s1DEfJDU+w/i YR1ExXH9hdmuS7FLZb/b4H3se5wOGkdat0M/kdbxPSSKX8b1mBBndtXy8nyvNNgjdcQtdI+k3n8Q D+vgq2gxoDDbdeUyQmic2slnaG3BCwG4vhwIDg6eXk4Ez/lexZIj1jjgpBZRLjhga3NTuN+R1uou 9tW/YGzCr5QfbSN+58ydU5X6YciNZd5xeOiLXtH2MOyLvmLmwGhQBCOznaL1A2n/IcCi6NLU9za5 3yoYcHAjhdbNUNHW0h9nxrVf6iUlgCZuJUoqtcWmYvy0cdm07Zdqa5JSPxQ5ovpH4KE/ekXr6bbI 12/6WOv6ywCIY6pQ3jjR2YOB7XCTkSgfWAomHu6plfGEV1wRIGRWCkB4HmkNgO2VSX0u2VYPcTWc PFVF8xJp4527SFLvPybCw570SuJKvRa9HUreXZVvlm3qHy0zKvYz/wHHAhsjjjfMRoQb5lCIdVHy XGUknrJ3qaUl4OX9ngNpI3qpGg9zdlTZcnzQOfGWedrwWqelfhAOuzHrH4mHfugV7cnKt1RS/264 wUGrlnqnlo9kjdpFxVTxEIBrrecYhcr4C8vYr9rIdY9oYmCtfpSvZIh85QOVkqCK0VOGcEcn1fSl vmceO6D6x+ah63pFc4cVJHIww6MaVmwSkfuBUiISS2XebXNCCO/G3rt4Lo51YXtpXEYFTonEuBoi LsdhaK4e4Lk6ekhEhsx9r/h63N63jt2cvNTPACPz0Hm9El8biSj/3WCudTdeUMgYE63iRXTTV66Y V1Ej01eLmbmZppM0qUqXiDSzq2B5URtFS0VE/CRjxl9zKbZJDs9kJtOxn7OQ+h757MKs3wEeuqxX lKyEIj+HT+qUN/2BjNlas95QYRs9eT01Rmv+Z/nffc3fKhR1cFkbaNbuHkPxNzCgjZPypLtJZEan YNrUKW/RghdS3xunXVD9bvDQWb2iDrYibzdvKgfGtVXhgj9NM8PNXHjirEyqAAd59wH+BvApStf3 2VqZTn8Vth6JZ8HEg6hXcmSSMFw9R9EkZkIftfIon3/VUYfMK/OR+unCFR66qle0zETH/EQO5oNW L/1RGr+kznsIFrQB8amydazYHmAcITiOoiqkMPE/NwgfmxsMxX+tDNM0oSd0WJX5XEWkvKtd8r7P SOonC2d46KheUWsP4oyswyez7aCFyYNVzs7TU1PzayjTV3NJ7HCqd8fa4az9+KVjZOzK7eCXFKjw uSoOtjLPBeYo9T3we2SHjzs8lG05p1dUj0IBgZ9ZgBWeAHA8giNbVzNgN/yLCF+I8D9EZRVv2AZP 4PiGRe4b58aOuCLCpbxqztAQryyQ932vErususJI6fpV9e15gq2MiqcvLbIC7bSZ/x+lGVVCaV0E jNcz8knq/YfrPHRQr8RjFMZ/mr06CpfSCrYp51GtBYoh5z/alTXW9PU4APvv5mmQMedvmWLBOCnh ixaPXTOmg6S+B44PPOt3l4e5vBldr2hPyUJA4Cc0m42dRbEHre576to03nYAJG/kXY1EwTOP06+F f9TRe+v5rr4ktiv292v7AOp6+0nq/YcPPHRJr8Rz/qsciTHnCRVvqSFn/fp7v9IvTbP+WmO6ww23 bjlAsdZ4WjKjV/xr7e13hWjWPyVySa+oZHDyifyp/UtkOmAr7AHlTeYIK3bxafONGZRyawnxJh7E g+iU9Vx8iifBJJXNuOJQuDrFXQiEQeCYXonDVKUNTqofbIEQwJt4U+6CewxuIUSk5dAk1e8ARKT2 AVSlfSAQBoFbekXtT/iMAyFmr/rlVosP8Q6Io/IuL9ih9LJkw0WXWHKCPfyQf62kyCYQusE5vRL3 QEXNzVz1y60Wao+d+FDm2ZqVbeZIwg4rd/uxDTtQKq++Ic5yCw8nl89IoDBnBdf0CouDXyPNbTr2 QkjJssQAC144ZVvXauOUBCVq3yoNKLyHVI09lnMglctn1MXOznfh7zLvqkmvp02u6RW13KwFXYw+ SBXDd6e+0reFyC0cov1yYRyvVkawtHfY1+0NkTWJ8XiHtb+qXwDh3JMVqnFwTK/IPcpG9NXow1TS 3S4PQWXZDlVUYZ372U2dFG8ESdKrFmbjk+FaHqsin0gFx3Wu1zXiPfQq9US9889BvaLm/Ia1MfpQ lXQ4Gaaa0draYcVjg7VqnVcMf0k0rha1m5uDWzKoU2Q7URNSOzz5uP3ocAc3dWhd6ol6556TekX2 KSVPow9Wblc5Fkaed4F9URVL7YqD8a8dgvQV4Fhgja2RoilnABFk2lplWxMwcsWfzPc4uKz0WVqY gciy5MTmsoej3pfUEw3COWf1inqRpOyM0Yct1Z3qvBwpo9bI75hPyiOWKbt8p2zh46L6qHlGnM7O C3bYYIOd/N+tbfYaorakeOyRk61fqSfqnX9O6xX5Qso4j34eOwwqBe+y44grXliAN/wOjkDLVnnF J360KhZB6ADxzr5jAeBQnSnRGXgn9YS+YUuvsD04gEjVD0g+EWPf42TAAizwCI4IV1xbJCkmWAEL cAIH8Eppkgn+o4teYQucAADP2TQopPoJkwNbyYzkD2R1EeYMdkEA4C0vk9bMd/MSpgi1cf7QsSEC wWOwHQIAx/wUijTrJ0wSsi7wR6NS8ATCZMDWOAA4i4I1L1L9hImChVihwNglEKYN6eWP8GuR05NU P2GyYCcsALyIz85NEQgeQYY6XLEsXu0iXz9hshBLfAI4UC5Pwpwg84aeyxQ/qX7CpCFe8AHgb6ql RpgRTghwFMvy+DZS/YRJQ7ziBV9US40wF7AAj3gTlaVe/g/LKEMUig2nIQAAACV0RVh0ZGF0ZTpj cmVhdGUAMjAxOC0wNi0xNlQxMzoxMjoxMyswMDowMJItSD0AAAAldEVYdGRhdGU6bW9kaWZ5ADIw MTgtMDYtMTZUMTM6MTI6MTMrMDA6MDDjcPCBAAAAOnRFWHRsYXRleABLX3tcdGV4dHtIeGN9fSA9 IFxsYW1iZGEoS19cdGV4dHtIfSArIEtfe1x0ZXh0e3hjfX0pQlNMjwAAAAx0RVh0Y29sb3IAMDAw MDAwwp/2oQAAAA50RVh0cmVzb2x1dGlvbgA2MDDyft0mAAAAAElFTkSuQmCC "
       style="image-rendering:optimizeQuality"
       preserveAspectRatio="none"
       height="66.400002"
       width="612"
       transform="scale(1,-1)" /></g></svg>