<?xml version="1.0" encoding="utf-8" standalone="no"?>
<!DOCTYPE svg PUBLIC "-//W3C//DTD SVG 1.1//EN"
  "http://www.w3.org/Graphics/SVG/1.1/DTD/svg11.dtd">
<!-- Created with matplotlib (http://matplotlib.org/) -->
<svg height="319pt" version="1.1" viewBox="0 0 746 319" width="746pt" xmlns="http://www.w3.org/2000/svg" xmlns:xlink="http://www.w3.org/1999/xlink">
 <defs>
  <style type="text/css">
*{stroke-linecap:butt;stroke-linejoin:round;}
  </style>
 </defs>
 <g id="figure_1">
  <g id="patch_1">
   <path d="M 0 319.21875 
L 746.682812 319.21875 
L 746.682812 0 
L 0 0 
z
" style="fill:#ffffff;"/>
  </g>
  <g id="axes_1">
   <g id="patch_2">
    <path clip-path="url(#p119bcdccf8)" d="M 282.607813 226.040625 
C 301.105729 226.040625 318.848508 218.73874 331.92851 205.743125 
C 345.008512 192.74751 352.357813 175.1192 352.357813 156.740625 
C 352.357813 138.36205 345.008512 120.73374 331.92851 107.738125 
C 318.848508 94.74251 301.105729 87.440625 282.607813 87.440625 
C 264.109896 87.440625 246.367117 94.74251 233.287115 107.738125 
C 220.207113 120.73374 212.857813 138.36205 212.857813 156.740625 
C 212.857813 175.1192 220.207113 192.74751 233.287115 205.743125 
C 246.367117 218.73874 264.109896 226.040625 282.607813 226.040625 
z
" style="fill:#2ca02c;stroke:#2ca02c;stroke-linejoin:miter;"/>
   </g>
   <g id="patch_3">
    <path clip-path="url(#p119bcdccf8)" d="M 491.857813 226.040625 
C 510.355729 226.040625 528.098508 218.73874 541.17851 205.743125 
C 554.258512 192.74751 561.607813 175.1192 561.607813 156.740625 
C 561.607813 138.36205 554.258512 120.73374 541.17851 107.738125 
C 528.098508 94.74251 510.355729 87.440625 491.857813 87.440625 
C 473.359896 87.440625 455.617117 94.74251 442.537115 107.738125 
C 429.457113 120.73374 422.107813 138.36205 422.107813 156.740625 
C 422.107813 175.1192 429.457113 192.74751 442.537115 205.743125 
C 455.617117 218.73874 473.359896 226.040625 491.857813 226.040625 
z
" style="fill:#2ca02c;stroke:#2ca02c;stroke-linejoin:miter;"/>
   </g>
   <g id="text_1">
    <!-- $+$ -->
    <defs>
     <path d="M 46 62.703125 
L 46 35.5 
L 73.1875 35.5 
L 73.1875 27.203125 
L 46 27.203125 
L 46 0 
L 37.796875 0 
L 37.796875 27.203125 
L 10.59375 27.203125 
L 10.59375 35.5 
L 37.796875 35.5 
L 37.796875 62.703125 
z
" id="DejaVuSans-2b"/>
    </defs>
    <g style="fill:#d62728;" transform="translate(579.045313 163.670625)scale(0.6 -0.6)">
     <use transform="translate(0 0.296875)" xlink:href="#DejaVuSans-2b"/>
    </g>
   </g>
   <g id="text_2">
    <!-- $-$ -->
    <defs>
     <path d="M 10.59375 35.5 
L 73.1875 35.5 
L 73.1875 27.203125 
L 10.59375 27.203125 
z
" id="DejaVuSans-2212"/>
    </defs>
    <g style="fill:#1f77b4;" transform="translate(143.107813 163.670625)scale(0.6 -0.6)">
     <use transform="translate(0 0.5)" xlink:href="#DejaVuSans-2212"/>
    </g>
   </g>
   <g id="text_3">
    <!-- CTP -->
    <defs>
     <path d="M 64.40625 67.28125 
L 64.40625 56.890625 
Q 59.421875 61.53125 53.78125 63.8125 
Q 48.140625 66.109375 41.796875 66.109375 
Q 29.296875 66.109375 22.65625 58.46875 
Q 16.015625 50.828125 16.015625 36.375 
Q 16.015625 21.96875 22.65625 14.328125 
Q 29.296875 6.6875 41.796875 6.6875 
Q 48.140625 6.6875 53.78125 8.984375 
Q 59.421875 11.28125 64.40625 15.921875 
L 64.40625 5.609375 
Q 59.234375 2.09375 53.4375 0.328125 
Q 47.65625 -1.421875 41.21875 -1.421875 
Q 24.65625 -1.421875 15.125 8.703125 
Q 5.609375 18.84375 5.609375 36.375 
Q 5.609375 53.953125 15.125 64.078125 
Q 24.65625 74.21875 41.21875 74.21875 
Q 47.75 74.21875 53.53125 72.484375 
Q 59.328125 70.75 64.40625 67.28125 
z
" id="DejaVuSans-43"/>
     <path d="M -0.296875 72.90625 
L 61.375 72.90625 
L 61.375 64.59375 
L 35.5 64.59375 
L 35.5 0 
L 25.59375 0 
L 25.59375 64.59375 
L -0.296875 64.59375 
z
" id="DejaVuSans-54"/>
     <path d="M 19.671875 64.796875 
L 19.671875 37.40625 
L 32.078125 37.40625 
Q 38.96875 37.40625 42.71875 40.96875 
Q 46.484375 44.53125 46.484375 51.125 
Q 46.484375 57.671875 42.71875 61.234375 
Q 38.96875 64.796875 32.078125 64.796875 
z
M 9.8125 72.90625 
L 32.078125 72.90625 
Q 44.34375 72.90625 50.609375 67.359375 
Q 56.890625 61.8125 56.890625 51.125 
Q 56.890625 40.328125 50.609375 34.8125 
Q 44.34375 29.296875 32.078125 29.296875 
L 19.671875 29.296875 
L 19.671875 0 
L 9.8125 0 
z
" id="DejaVuSans-50"/>
    </defs>
    <g transform="translate(324.457813 52.790625)scale(0.6 -0.6)">
     <use xlink:href="#DejaVuSans-43"/>
     <use x="69.824219" xlink:href="#DejaVuSans-54"/>
     <use x="130.908203" xlink:href="#DejaVuSans-50"/>
    </g>
   </g>
  </g>
 </g>
 <defs>
  <clipPath id="p119bcdccf8">
   <rect height="277.2" width="697.5" x="38.482813" y="18.140625"/>
  </clipPath>
 </defs>
</svg>
